#  R (cm)     T (K)
  1.250000  246.981643
  3.750000  246.886756
  6.250000  246.884533
  8.750000  246.769224
 11.250000  246.845730
 13.750000  246.934837
 16.250000  246.983152
 18.750000  247.257122
 21.250000  248.251245
 23.750000  253.311088
 25.000000  264.000000
