#  R (cm)     T (K)
  1.250000  229.846093
  3.750000  229.784868
  6.250000  229.778452
  8.750000  229.693600
 11.250000  229.757027
 13.750000  229.837781
 16.250000  229.927683
 18.750000  230.288212
 21.250000  231.697521
 23.750000  238.678085
 25.000000  254.000000
