#  R (cm)     T (K)
  0.725000    4.791462
  2.175000    4.787938
  3.625000    4.781002
  5.075000    4.770311
  6.525000    4.755524
  7.975000    4.737044
  9.425000    4.714339
 10.875000    4.687356
 12.325000    4.655980
 13.775000    4.620372
 14.500000    4.600000
