#40K CH		              40K MP
#t(days)    T(K)        t(days)    T(K)
0.017711016	305.4451477	0.024253696	300.2074543
0.02799237	304.9167839	0.037339056	300.5520394
0.033834049	305.5485232	0.051359084	300.5520394
0.046685742	305.3762307	0.065379113	300.5520394
0.06070577	305.3762307	0.08033381	300.2763713
0.074725799	305.3762307	0.09341917	300.4658931
0.088745827	305.3762307	0.108607535	300.3797468
0.09341917	293.9187764	0.120290892	300.3797468
0.09341917	292.741444	0.12613257	299.6331458
0.09341917	291.7076887	0.135479256	300.322316
0.09341917	290.6739334	0.136413925	298.8291139
0.09341917	289.6401782	0.149499285	299.5182841
0.09341917	288.6064229	0.148330949	298.3983826
0.09341917	287.5726676	0.155340963	297.278481
0.09341917	286.5389123	0.160014306	295.9432138
0.09341917	285.5051571	0.163519313	298.4845288
0.09341917	284.4714018	0.168192656	297.3359119
0.09341917	283.4376465	0.173800668	296.0724332
0.09341917	282.4038912	0.172865999	294.6940928
0.09341917	281.370136	0.17847401	293.4535865
0.09341917	280.3363807	0.184549356	295.7278481
0.09341917	279.3026254	0.186886028	294.6940928
0.09341917	278.2688701	0.191559371	293.2296062
0.09341917	277.2351149	0.190391035	291.9374121
0.09341917	276.2013596	0.196232713	290.9036568
0.09341917	275.1676043	0.198569385	294.1772152
0.09341917	274.133849	0.203242728	292.7988748
0.09341917	273.1000938	0.205579399	291.8225504
0.09341917	272.0663385	0.205579399	289.999121
0.09341917	271.0325832	0.211421078	288.9222925
0.09341917	269.9988279	0.214926085	290.9898031
0.09341917	268.9650727	0.214926085	287.802391
0.09341917	267.9313174	0.224272771	289.697609
0.09341917	266.8975621	0.224272771	288.4915612
0.099027182	265.4043601	0.225441106	286.9840014
0.098092513	264.0260197	0.228946113	285.907173
0.098092513	262.9922644	0.233619456	289.1807314
0.098092513	261.9585091	0.235956128	288.1469761
0.098092513	260.9247539	0.238292799	287.1132208
0.098092513	259.8909986	0.237124464	284.8734177
0.098092513	258.8572433	0.244134478	286.1656118
0.098092513	257.823488	0.242966142	283.943038
0.098092513	256.7897328	0.247639485	282.863338
0.098092513	255.7559775	0.252312828	286.0794655
0.098092513	254.7222222	0.254649499	285.0457103
0.098092513	253.6884669	0.256986171	284.011955
0.098092513	252.6547117	0.256986171	281.9444444
0.098092513	251.6209564	0.262827849	282.8920534
0.098092513	250.5872011	0.261659514	280.7039381
0.098092513	249.5534459	0.266332856	279.6701828
0.098092513	248.5196906	0.271006199	282.6336146
0.098092513	247.4859353	0.275679542	281.4849977
0.098092513	246.45218	0.275679542	278.4296765
0.098092513	245.4184248	0.280352885	280.4512424
0.098092513	244.3846695	0.280352885	279.5323488
0.098092513	243.3509142	0.280352885	277.3499766
0.098092513	242.3171589	0.285026228	276.431083
0.098092513	241.2834037	0.289699571	278.3837318
0.100429185	305.3762307	0.290867907	275.5265471
0.102765856	240.1347867	0.289699571	279.5323488
0.102765856	239.1010314	0.295541249	277.2925457
0.102765856	238.0672761	0.294372914	274.4210033
0.102765856	237.0335209	0.304654268	275.6040788
0.102765856	235.9997656	0.304654268	273.5365682
0.102765856	234.9660103	0.303719599	277.1202532
0.102765856	233.932255	0.309561278	272.2960619
0.10159752	232.7549226	0.313066285	271.0900141
0.102765856	293.6603376	0.315402957	274.7081575
0.102765856	292.6265823	0.317739628	273.6744023
0.102765856	291.592827	0.318674297	270.0218003
0.102765856	290.5590717	0.323347639	272.1582278
0.102765856	289.5253165	0.328020982	268.850211
0.102765856	288.4915612	0.331759657	270.6592827
0.102765856	287.4578059	0.332927992	267.8164557
0.102765856	286.4240506	0.334096328	271.9514768
0.102765856	285.3902954	0.341106342	269.5393812
0.102765856	284.3565401	0.342041011	266.9205345
0.102765856	283.3227848	0.341106342	270.5731364
0.102765856	282.2890295	0.346948021	268.4194796
0.102765856	281.2552743	0.346714354	265.197609
0.102765856	280.221519	0.35606104	266.6448664
0.102765856	279.1877637	0.355126371	263.8537271
0.102765856	278.1540084	0.355126371	268.1610408
0.102765856	277.1202532	0.36096805	265.1459212
0.102765856	276.0864979	0.364473057	263.0784107
0.102765856	275.0527426	0.364473057	261.8436474
0.102765856	274.0189873	0.366809728	266.4381153
0.102765856	272.9852321	0.371483071	264.8874824
0.102765856	271.9514768	0.373819742	263.7962963
0.102765856	270.9177215	0.374754411	261.0625879
0.102765856	269.8839662	0.379661421	262.7338256
0.102765856	268.850211	0.379661421	259.6756329
0.105102527	267.4718706	0.384334764	258.8572433
0.105102527	266.4381153	0.387839771	261.1831927
0.108373867	231.4971871	0.387839771	262.6476793
0.107439199	230.141819	0.393447783	257.685654
0.107439199	229.1080638	0.397186457	260.120722
0.107439199	228.0743085	0.397186457	259.0869667
0.107439199	227.0405532	0.398354793	256.229782
0.107439199	226.0067979	0.403028135	255.4113924
0.107439199	224.9730427	0.407467811	257.685654
0.107439199	223.9392874	0.406533143	259.2018284
0.107439199	222.9055321	0.412141154	254.3776371
0.107439199	221.8717768	0.415879828	256.1867089
0.107439199	220.8380216	0.415879828	252.8844351
0.107439199	219.8042663	0.4182165	257.478903
0.107439199	218.770511	0.425226514	255.0668073
0.107439199	217.7367557	0.425226514	253.8033286
0.107439199	216.7030005	0.426161183	252.1033755
0.107439199	215.6692452	0.431068193	250.7164205
0.107439199	214.6354899	0.435741536	249.8980309
0.102765856	214.233474	0.436909871	254.033052
0.107439199	265.059775	0.436909871	252.9992968
0.107439199	264.0260197	0.439246543	251.9655415
0.107439199	262.9922644	0.444854554	248.5196906
0.107439199	261.9585091	0.448593228	250.8456399
0.107439199	260.9247539	0.448593228	249.8980309
0.107439199	259.8909986	0.449527897	247.0724332
0.107439199	258.8572433	0.45910825	248.7781294
0.107439199	257.823488	0.457939914	246.1937412
0.107439199	256.7897328	0.457939914	249.8980309
0.107439199	255.7559775	0.463781593	247.7443741
0.107439199	254.7222222	0.463781593	244.9876934
0.107439199	253.6884669	0.468454936	243.9970113
0.107439199	252.6547117	0.472894611	246.314346
0.107439199	251.6209564	0.471959943	247.8305204
0.10977587	250.5872011	0.476633286	242.7191749
0.10977587	249.5534459	0.482474964	244.8154008
0.107439199	248.5196906	0.481306629	243.5806376
0.10977587	247.4859353	0.482474964	241.7572082
0.10977587	246.45218	0.481306629	245.7630098
0.10977587	245.4184248	0.487148307	240.9388186
0.10977587	244.3846695	0.490653314	244.7292546
0.10977587	243.3509142	0.492989986	243.3509142
0.10977587	242.3171589	0.495326657	242.4320206
0.10977587	241.2834037	0.495326657	239.7327707
0.113280877	213.285865	0.5	241.0249648
0.112112542	212.1085326	0.498831664	238.6128692
0.112112542	211.0747773	0.505608011	237.6308017
0.112112542	210.041022	0.507010014	241.6279887
0.112112542	209.0072668	0.510281354	239.7672293
0.112112542	207.9735115	0.514954697	236.4592124
0.112112542	206.9397562	0.51962804	238.3199719
0.112112542	205.9060009	0.519861707	235.1670183
0.112112542	204.8722457	0.518693371	239.9050633
0.112112542	203.8384904	0.529208393	236.7176512
0.112112542	202.8047351	0.528040057	234.133263
0.112112542	201.7709798	0.528040057	237.8375527
0.112112542	200.7372246	0.5327134	235.5403188
0.112112542	199.7034693	0.533648069	232.9444444
0.112112542	198.669714	0.539723414	236.4592124
0.112112542	197.6359587	0.542060086	234.5639944
0.112112542	240.2496484	0.542994754	231.7728551
0.112112542	239.2158931	0.546733429	233.1282232
0.112112542	238.1821378	0.551406772	230.342827
0.112112542	237.1483826	0.553743443	233.7025316
0.112112542	236.1146273	0.557014783	231.9796062
0.112112542	235.080872	0.55724845	229.1367792
0.112112542	234.0471167	0.566361469	230.6012658
0.112112542	233.0133615	0.566361469	227.637834
0.11795422	196.7457806	0.5654268	231.9796062
0.116785885	195.4535865	0.571268479	229.0506329
0.116785885	194.4198312	0.574773486	230.6012658
0.116785885	193.6445148	0.579446829	227.5861463
0.122627563	192.783052	0.578278493	226.2078059
0.121459227	191.5482888	0.5817835	228.8783404
0.120290892	190.4571027	0.584120172	225.0017581
0.121459227	202.6898734	0.591130186	227.8445851
0.121459227	201.6561181	0.593466857	226.8108298
0.123795899	200.6223629	0.593466857	225.7770745
0.123795899	199.5886076	0.594401526	224.0541491
0.123795899	198.5548523	0.603748212	222.6758087
0.12613257	189.2510549	0.602813543	221.4123301
0.12613257	188.2172996	0.605150215	225.7770745
0.12613257	187.1835443	0.607486886	224.6284576
0.12613257	186.149789	0.607486886	223.709564
0.12613257	185.1160338	0.613094897	220.7461322
0.12613257	184.0822785	0.618001907	222.4173699
0.12613257	183.0485232	0.621506915	223.0203938
0.12613257	182.0721988	0.622441583	219.2299578
0.12613257	197.521097	0.627114926	220.9528833
0.12613257	196.4873418	0.636695279	219.3161041
0.12613257	195.4535865	0.635526943	218.0813408
0.12613257	194.4198312	0.634358608	216.9040084
0.131974249	180.8948664	0.635526943	220.2637131
0.130805913	179.717534	0.640200286	216.0712611
0.130805913	178.6837787	0.6472103	218.8853727
0.130805913	177.6500234	0.649546972	217.8516174
0.129637577	176.5014065	0.649546972	216.8178622
0.130805913	192.3523207	0.65048164	215.0949367
0.130805913	191.3185654	0.659828326	213.8544304
0.130805913	190.2848101	0.658893658	217.5070323
0.135479256	175.8983826	0.661230329	216.4732771
0.135479256	182.359353	0.663567	215.4395218
0.140152599	175.0082044	0.663567	212.3956868
0.14248927	178.568917	0.669408679	211.4767932
0.144825942	177.4203	0.672913686	214.4919128
0.144825942	176.3865448	0.672913686	213.2571496
0.14576061	173.6068917	0.682260372	212.2521097
0.144825942	172.2515237	0.682260372	211.0747773
0.144825942	171.2177684	0.682260372	210.041022
0.144825942	170.1840131	0.682260372	213.7165963
0.149499285	168.7137834	0.686933715	208.8493319
0.149499285	175.1230661	0.693943729	211.6490858
0.153004292	167.5421941	0.696280401	210.5004688
0.154172628	173.4001406	0.696280401	209.4667135
0.154172628	172.3663854	0.697215069	207.7208158
0.15884597	170.988045	0.705627086	206.2649437
0.15884597	169.9542897	0.707963758	209.5815752
0.15884597	166.048992	0.710300429	208.54782
0.164687649	168.7482419	0.710300429	207.5140647
0.164687649	164.6132208	0.714973772	205.3891233
0.163519313	163.407173	0.720815451	206.3941632
0.161182642	162.6318565	0.719647115	204.2060478
0.165855985	167.3699015	0.719647115	207.5140647
0.168192656	166.1638537	0.724320458	203.2067511
0.168192656	162.0288326	0.728993801	206.4803094
0.207916071	154.4479606	0.733667144	205.3316925
0.210252742	153.4142053	0.733667144	204.2979372
0.210252742	152.3804501	0.734835479	202.4314346
0.210252742	151.3466948	0.738340486	203.3790436
0.210252742	150.3129395	0.738340486	201.1966714
0.210252742	149.3366151	0.743013829	204.4127989
0.214926085	148.5325832	0.747687172	202.3452883
0.221936099	151.3466948	0.747687172	200.2777778
0.224272771	150.4278012	0.747687172	203.3790436
0.224272771	149.3940459	0.753528851	201.3976793
0.224272771	147.7285513	0.753528851	199.3301688
0.230114449	146.6947961	0.758202194	198.1671941
0.232061675	148.7048758	0.764043872	201.3115331
0.233619456	145.6610408	0.766380544	200.2777778
0.240629471	146.5225035	0.766380544	199.2440225
0.242966142	144.7134318	0.771053887	197.7795359
0.248574154	143.2144866	0.771053887	196.6596343
0.247639485	145.8333333	0.778063901	199.5886076
0.252312828	141.7557431	0.778063901	198.5548523
0.258154506	140.8368495	0.780400572	195.9704641
0.259322842	142.559775	0.785073915	197.2626582
0.262827849	139.8892405	0.785073915	194.9941397
0.266332856	141.6983122	0.789747258	193.730661
0.271006199	138.769339	0.794420601	196.228903
0.275679542	139.2862166	0.800028612	194.7644163
0.275679542	137.9078762	0.800028612	192.7658228
0.280352885	136.874121	0.808440629	191.5339311
0.285026228	135.8977965	0.810777301	194.9367089
0.285026228	137.9078762	0.810777301	193.9029536
0.292036242	136.5295359	0.813113972	192.9266292
0.295541249	135.0219761	0.816852647	190.4226442
0.299046257	133.7728551	0.823395327	192.0077356
0.303719599	132.6242382	0.823395327	189.0098453
0.310729614	133.6005626	0.832742012	190.2848101
0.313066285	131.7914909	0.831807344	191.6631505
0.318907964	130.7577356	0.837415355	188.4240506
0.317739628	132.7390999	0.834144015	187.3558368
0.329422985	130.4992968	0.843490701	189.5956399
0.331759657	129.5229723	0.845827372	186.7240975
0.337367668	128.3284107	0.850500715	188.2172996
0.345779685	127.096519	0.851669051	185.3744726
0.348116357	128.4317862	0.855174058	184.3694327
0.355126371	126.2781294	0.86078207	186.8389592
0.365407725	125.1582278	0.864520744	185.3457571
0.370704181	124.0096109	0.865455412	183.7721519
0.380829757	123.95218	0.871530758	186.149789
0.383166428	122.9758556	0.874802098	182.359353
0.383166428	122.056962	0.878540773	184.5130098
0.39368145	121.2816456	0.878540773	183.3931083
0.392513114	122.4015471	0.883214115	181.1533052
0.404196471	121.0232068	0.887887458	182.1296296
0.405364807	119.9033052	0.888822127	180.2229255
0.415879828	118.7489451	0.892560801	183.0485232
0.415879828	119.9894515	0.898168813	179.3270042
0.421721507	117.7927215	0.900349706	181.5553211
0.4345732	117.3476324	0.901907487	180.6364276
0.4345732	116.4287389	0.90658083	178.0951125
0.448593228	116.1990155	0.912188841	179.6026723
0.446256557	115.423699	0.914992847	177.1216596
0.457005246	114.6139241	0.921535527	175.8811533
0.4672866	113.5801688	0.92293753	178.9135021
0.4672866	114.8206751	0.925274201	177.9946085
0.473128278	112.4516526	0.929947544	174.778481
0.485979971	112.0639944	0.934620887	177.2767229
0.4836433	111.2886779	0.934620887	176.0419597
0.496261326	110.54782	0.93929423	174.03188
0.505608011	109.2728551	0.945135908	175.0369198
0.504673343	110.685654	0.943967573	172.8488045
0.517525036	108.5319972	0.943967573	176.1568214
0.52453505	107.5843882	0.949809251	172.0648734
0.537386743	107.2398031	0.95565093	174.4338959
0.537386743	106.4357712	0.957987601	173.5150023
0.551406772	106.0911861	0.95892227	170.919128
0.551406772	104.9138537	0.96382928	172.1079466
0.563090129	105.1722925	0.968268956	169.8853727
0.5654268	104.253399	0.967334287	173.4001406
0.575708155	103.3115331	0.974344301	172.0218003
0.588793515	102.8750586	0.976680973	171.1029067
0.586456843	102.157173	0.981354316	169.6958509
0.599074869	101.5196906	0.98018598	168.3175105
0.609823557	101.5541491	0.986962327	167.4732771
0.612160229	100.5778247	0.98836433	170.4711674
0.622441583	99.79676512	0.995374344	169.1789733
0.635526943	99.42920769	0.995374344	166.2069269
0.635526943	98.56774496	1.000047687	167.6283404
0.648378636	98.28059072	1.005889366	165.3885373
0.65538865	97.41912799	1.007057701	168.2313643
0.668240343	97.13197375	1.010562709	166.5084388
0.668240343	96.09821847	1.009394373	164.6993671
0.679923701	96.21308017	1.015002384	163.6828411
0.682260372	95.40904829	1.02107773	166.1638537
0.692541726	94.66244726	1.023414402	165.2449602
0.704458751	94.23171589	1.023414402	162.4164909
0.710300429	93.34153774	1.029022413	163.7517581
0.720815451	92.55186357	1.033695756	161.7531646
0.724320458	93.28410689	1.035097759	164.7855134
0.733667144	92.03498594	1.042107773	163.0625879
0.743013829	91.17352321	1.042107773	160.6074191
0.757033858	90.69971871	1.047949452	161.8565401
0.762875536	89.7521097	1.051454459	159.7028833
0.775727229	89.40752461	1.05706247	158.5140647
0.789747258	88.97679325	1.060801144	161.3396624
0.787410587	88.20147679	1.060801144	160.3059072
0.800028612	87.73628692	1.066409156	157.6181435
0.810777301	87.77074543	1.071316166	159.0998594
0.813113972	86.85185185	1.07014783	160.3059072
0.823395327	86.04781997	1.075989509	156.4293249
0.836480687	85.61708861	1.080662852	157.721519
0.845827372	84.97099156	1.079494516	158.9275668
0.858679065	84.49718706	1.088841202	156.0847398
0.872699094	83.80801688	1.088841202	155.0222691
0.879709108	82.90348101	1.093514545	157.2046414
0.892560801	83.11884669	1.098187887	153.9885138
0.892560801	82.14252227	1.10286123	155.9124473
0.905412494	82.08509142	1.104029566	153.0696203
0.912422508	81.30977496	1.112207916	154.7063994
0.924105866	81.05133615	1.113376252	152.1220113
0.93929423	80.70675105	1.118049595	153.1557665
0.952145923	80.27601969	1.12248927	150.8642757
0.959155937	79.41455696	1.121554602	154.4479606
0.97200763	79.55813408	1.128564616	153.0696203
0.97200763	78.63924051	1.130901288	152.1507267
0.986027659	79.21354899	1.132069623	149.7099156
0.986027659	78.29465541	1.136742966	150.7436709
1.000047687	78.29465541	1.142584645	151.6912799
1.000047687	77.54805438	1.143986648	148.7278481
1.014067716	77.60548523	1.150529328	150.3129395
1.011731044	77.00246132	1.154268002	147.9869902
1.028087744	77.14603844	1.158941345	146.8670886
1.043276109	76.7440225	1.158941345	149.9683544
1.054959466	76.22714487	1.163614688	148.8197375
1.065474487	75.76769808	1.168288031	147.7859822
1.079494516	75.65283638	1.168288031	145.9625527
1.093514545	75.07852789	1.178569385	146.8670886
1.093514545	74.27449602	1.178569385	144.7995781
1.106366237	74.33192686	1.189318073	146.5225035
1.112207916	73.52789498	1.191654745	145.4887482
1.121554602	74.27449602	1.191654745	144.454993
1.12739628	73.34124473	1.190486409	143.3350914
1.139079638	73.03973277	1.201936099	142.5253165
1.144921316	72.32184716	1.201001431	145.1441632
1.158941345	72.09212377	1.205674773	143.9955462
1.172961373	71.91983122	1.206843109	141.1814346
1.186981402	71.40295359	1.215021459	142.6459212
1.186981402	70.65635256	1.220629471	141.0091421
1.199833095	70.54149086	1.217358131	139.9753868
1.205674773	69.79488983	1.226704816	142.2151899
1.215021459	70.59892171	1.229976156	139.4240506
1.220863138	69.7661744	1.233714831	140.8942804
1.233714831	69.68002813	1.239322842	138.3213783
1.233714831	68.8185654	1.243061516	139.7456634
1.247734859	68.41654946	1.247734859	137.0894866
1.261754888	68.07196437	1.252408202	138.6831927
1.271101574	67.22485935	1.257081545	136.1418776
1.285121602	66.98077825	1.261754888	137.6494374
1.299141631	66.693624	1.267362899	135.04782
1.304983309	65.84651899	1.272269909	136.4433896
1.316666667	65.71729958	1.271101574	137.5632911
1.323676681	65.0281294	1.281382928	134.8066104
1.336528374	65.43014534	1.280448259	133.42827
1.336528374	64.51125176	1.280448259	136.1849508
1.349380067	64.59739803	1.286289938	132.480661
1.356390081	63.86515471	1.292131617	134.8066104
1.369241774	63.47749648	1.294468288	133.8877168
1.383261803	63.13291139	1.300076299	132.3945148
1.396113495	62.7883263	1.299141631	131.0161744
1.40312351	62.05608298	1.306151645	133.6005626
1.414806867	61.92686357	1.31316166	132.1647914
1.421816881	61.23769339	1.31316166	131.1310361
1.434668574	61.75457103	1.31316166	130.0972808
1.434668574	60.83567745	1.317835002	129.2358181
1.448688603	61.06540084	1.324845017	131.1884669
1.448688603	60.31879981	1.327181688	130.2121425
1.461540296	60.29008439	1.328116357	128.6040788
1.467381974	59.57219878	1.337463042	127.2946554
1.481402003	59.51476793	1.341201717	129.637834
1.495422031	59.22761369	1.341201717	128.6040788
1.508273724	58.56715893	1.350548402	127.1395921
1.523462089	58.30872011	1.350548402	126.0196906
1.537482117	58.02156587	1.355221745	128.2594937
1.55033381	57.53340366	1.360829757	125.3305204
1.557343825	56.84423347	1.364568431	126.6514299
1.569027182	56.7580872	1.369241774	124.1244726
1.57486886	56.01148617	1.375083453	125.0720816
1.584215546	56.81551805	1.373915117	126.1919831
1.590057225	55.98277075	1.37858846	123.2630098
1.602908918	56.24120956	1.384430138	122.2292546
1.602908918	55.43717768	1.387935145	124.8136428
1.616928946	55.43717768	1.387935145	123.7798875
1.621602289	54.69057665	1.397281831	122.3154008
1.635622318	54.57571496	1.397281831	121.1954993
1.649642346	54.46085326	1.401955174	123.4353024
1.663662375	53.9152602	1.406628517	120.463256
1.674177396	53.22609001	1.41130186	121.7985232
1.685860753	52.9676512	1.417143538	119.3864276
1.691702432	52.22105016	1.421816881	120.4201828
1.701049118	53.13994374	1.421816881	118.2234529
1.706890796	52.23540788	1.434668574	119.9894515
1.719742489	52.45077356	1.434668574	118.9556962
1.719742489	51.58931083	1.434668574	117.9219409
1.732594182	51.6754571	1.434668574	116.8881857
1.738435861	50.90014065	1.44401526	118.9556962
1.752455889	50.8427098	1.448688603	117.8070792
1.766475918	50.7278481	1.448688603	116.773324
1.780495947	50.21097046	1.448688603	115.7969995
1.789842632	49.63666198	1.454530281	114.9068214
1.803862661	49.52180028	1.46037196	117.0604782
1.81788269	49.34950774	1.462708631	116.0841538
1.830734382	49.09106892	1.467381974	114.7345288
1.837744397	48.14345992	1.467381974	113.6146273
1.85059609	48.31575246	1.47672866	115.5098453
1.851764425	47.10970464	1.47672866	113.0116034
1.864616118	48.08602907	1.481402003	114.3612283
1.863447783	46.9374121	1.486075346	112.0209212
1.878636147	47.85630567	1.490748689	113.528481
1.878636147	46.87998125	1.496590367	111.2456048
1.892656175	47.33942804	1.500095374	112.5234412
1.887982833	46.76511955	1.500095374	110.1113455
1.967429661	45.96108767	1.50944206	111.4609705
1.98144969	45.90365682	1.50944206	109.4365331
1.996638054	45.86058368	1.519723414	110.3410689
2.009489747	45.55907173	1.519723414	108.3769339
2.023509776	45.55907173	1.528135432	110.3410689
2.036361469	45.47292546	1.532808774	109.0775902
2.042203147	44.75503985	1.532808774	108.043835
2.056223176	44.697609	1.530472103	107.3259494
2.070243205	44.52531646	1.538650453	106.6367792
2.084263233	44.46788561	1.546828803	107.9289733
2.098283262	44.35302391	1.546828803	105.4738045
2.113471626	44.00843882	1.552670482	106.7229255
2.126323319	43.83614627	1.557110157	104.4831224
2.123986648	43.23312236	1.563185503	106.5506329
2.139175012	43.14697609	1.565522175	105.6317393
2.153428708	42.87130802	1.571130186	104.1385373
2.163710062	42.28551336	1.570195517	102.9324895
2.168383405	43.14697609	1.577205532	105.1722925
2.177730091	42.17065166	1.584215546	103.6790905
2.182403433	43.14697609	1.584215546	102.6453352
2.192918455	42.24244023	1.584215546	101.6115799
2.196423462	42.97468354	1.590057225	100.6496132
2.205770148	41.94092827	1.595898903	102.9324895
2.210443491	42.6875293	1.598235575	101.956165
2.220958512	41.68248945	1.602908918	100.6065401
2.224463519	42.11322082	1.602908918	99.48663854
2.233810205	41.07946554	1.609918932	101.5541491
2.247830234	40.73488045	1.613190272	98.83192686
2.261850262	40.6774496	1.616928946	100.2332396
2.275870291	40.44772621	1.6272103	98.9697609
2.28989032	40.13185654	1.625107296	97.50527426
2.299237005	39.58626348	1.63211731	96.85917722
2.312088698	39.35654008	1.64029566	98.28059072
2.323538388	38.90857947	1.641230329	95.62728551
2.336623748	39.35654008	1.644969003	97.13197375
2.336623748	38.49507736	1.655250358	96.21308017
2.350643777	39.35654008	1.654315689	94.8347398
2.350643777	38.32278481	1.654315689	93.97327707
2.364663805	39.24167839	1.665999046	95.52390999
2.364663805	38.26535396	1.668335718	94.60501641
2.378683834	39.01195499	1.668335718	93.57126113
2.378683834	38.15049226	1.668335718	92.65236756
2.392703863	39.01195499	1.677682403	91.90576653
2.392703863	38.15049226	1.680019075	94.14556962
2.406723891	38.32278481	1.682355746	93.22667604
2.421678588	38.04711674	1.687963758	90.80309423
2.433595613	37.97819972	1.691702432	92.50879044
2.449952313	37.80590717	1.701049118	91.27402719
2.462804006	37.28902954	1.699880782	90.0966948
2.476824034	37.28902954	1.706890796	89.14908579
2.490844063	37.28902954	1.712732475	90.52742616
2.504864092	37.23159869	1.719742489	89.23523207
2.51888412	37.11673699	1.718574154	87.94303797
2.532904149	37.11673699	1.725350501	86.77144866
2.546924177	37.11673699	1.733762518	88.63220816
2.560944206	37.11673699	1.733762518	87.59845288
2.574964235	37.00187529	1.738435861	86.44983591
2.588984263	36.94444444	1.738435861	85.53094233
2.603004292	36.94444444	1.745445875	87.42616034
2.61702432	36.94444444	1.748717215	84.80731364
2.631044349	36.94444444	1.752455889	86.10525082
2.645064378	36.94444444	1.762737244	84.84177215
2.659084406	36.94444444	1.761802575	83.46343179
2.673104435	36.94444444	1.772083929	82.46413502
2.687124464	36.94444444	1.773485932	84.49718706
2.701144492	36.94444444	1.775822604	83.80801688
2.715164521	36.94444444	1.781430615	81.2580872
2.729184549	36.94444444	1.786103958	82.7742616
2.743204578	36.94444444	1.794515975	80.93647445
2.757224607	36.94444444	1.794515975	82.42967651
2.771244635	36.94444444	1.803862661	79.58684951
2.785264664	36.94444444	1.808536004	80.82161275
2.799284692	36.94444444	1.809470672	78.26019691
2.813304721	36.94444444	1.81788269	79.58684951
2.82732475	36.94444444	1.822556032	77.83520863
2.841344778	36.94444444	1.828397711	76.91631505
2.855364807	36.94444444	1.829566047	78.9838256
2.869384835	36.94444444	1.838912732	77.60548523
2.883404864	36.94444444	1.841249404	76.68659165
2.897424893	37.05930614	1.841249404	75.71026723
2.91237959	37.42686357	1.85059609	75.10724332
2.92546495	38.26535396	1.855269433	76.22714487
2.940419647	38.87412096	1.859942775	74.04477262
2.934811636	38.15049226	1.865784454	73.12587904
2.953505007	39.35654008	1.86695279	75.19338959
2.953505007	38.43764651	1.876299475	74.33192686
2.967525036	39.12681669	1.878636147	73.35560244
2.981545064	39.67240975	1.877467811	72.17827004
2.993228422	40.5625879	1.884477825	71.35988045
3.113567	42.11322082	1.892656175	72.32184716
3.126418693	42.19936709	1.898497854	71.14451477
3.140438722	42.802391	1.897329518	69.7661744
3.140438722	41.94092827	1.90784454	69.07700422
3.154458751	42.6875293	1.911349547	70.7137834
3.154458751	41.88349742	1.911349547	69.68002813
3.167544111	42.11322082	1.921630901	68.4395218
3.178760134	41.69971871	1.920696233	70.02461322
3.191845494	41.51019691	1.930977587	67.13009845
3.201192179	40.99331927	1.934716261	68.30168776
3.215212208	40.84974215	1.944062947	66.8084857
3.229232237	40.6774496	1.949904626	65.71729958
3.243252265	40.21800281	1.958082976	66.9233474
3.253533619	39.39099859	1.963924654	65.71729958
3.265450644	39.18424754	1.962756319	64.51125176
3.271292322	38.43764651	1.976776347	65.65986873
3.280639008	39.24167839	1.976776347	64.62611346
3.286480687	38.40893108	1.976776347	63.64978903
3.29933238	38.32278481	1.988459704	64.6835443
3.29933238	37.57618378	1.990796376	63.70721988
3.311015737	37.80590717	1.990796376	62.7883263
3.313352408	37.00187529	2.00107773	61.99578059
3.327372437	36.94444444	2.004816404	63.36263479
3.341392465	36.42756681	2.015097759	62.09915612
3.350739151	35.85325832	2.01416309	60.7782466
3.36475918	35.62353493	2.028183119	62.21401782
3.378779208	35.30766526	2.028183119	61.18026254
3.389060563	34.67018284	2.028183119	60.31879981
3.401211254	34.25668073	2.042203147	61.40998594
3.412427277	33.73980309	2.042203147	60.37623066
3.425512637	34.18776371	2.042203147	59.51476793
3.425512637	33.26887014	2.056223176	60.37623066
3.439532666	34.18776371	2.05505484	59.25632911
3.439532666	33.15400844	2.060896519	58.6533052
3.453552694	33.95804032	2.070243205	59.57219878
3.453552694	33.03914674	2.074916547	58.51547117
3.467572723	33.72831692	2.084263233	57.79184248
3.467572723	32.92428504	2.088936576	58.7681669
3.481592752	33.15400844	2.09921793	57.75738397
3.49561278	33.15400844	2.108564616	56.65471167
3.509632809	33.03914674	2.11230329	57.96413502
3.524821173	32.6371308	2.122818312	56.67194093
3.537672866	32.46483826	2.121649976	55.60947023
3.550758226	32.12025316	2.126323319	57.44725738
3.565712923	32.12025316	2.136604673	56.3790436
3.579732952	32.12025316	2.135670005	55.20745429
3.59375298	32.12025316	2.149690033	56.70065635
3.607773009	32.12025316	2.149690033	55.66690108
3.621793038	32.12025316	2.149690033	54.80543835
3.635813066	32.12025316	2.163710062	56.01148617
3.649833095	32.12025316	2.163710062	54.9777309
3.663853124	32.12025316	2.163710062	54.23112986
3.677873152	32.12025316	2.177730091	55.20745429
3.691893181	32.12025316	2.176561755	54.13062588
3.705913209	32.12025316	2.191750119	54.7480075
3.719933238	32.12025316	2.191750119	53.82911392
3.733953267	32.12025316	2.205770148	54.51828411
3.747973295	31.94796062	2.206704816	53.20886076
3.761993324	31.94796062	2.219790176	54.28856071
3.776013352	31.94796062	2.219790176	53.25480544
3.790033381	31.94796062	2.219790176	52.39334271
3.80405341	31.94796062	2.233810205	53.59939053
3.818073438	31.94796062	2.233810205	52.56563526
3.832093467	31.94796062	2.233810205	51.76160338
3.846113495	31.94796062	2.247830234	53.36966714
3.860133524	31.94796062	2.247830234	52.33591186
3.874153553	31.94796062	2.247830234	51.47444913
3.888173581	31.94796062	2.261850262	53.02508204
3.90219361	31.94796062	2.261850262	51.99132677
3.916213639	31.94796062	2.261850262	51.07243319
3.930233667	32.06282232	2.275870291	52.45077356
3.944253696	32.12025316	2.275870291	51.41701828
3.958273724	32.12025316	2.275870291	50.55555556
3.972293753	32.12025316	2.28989032	51.64674168
3.986313782	32.12025316	2.28989032	50.46940928
4.00033381	32.12025316	2.303910348	51.07243319
4.01341917	32.12025316	2.303910348	50.15353962
4.029542203	32.12025316	2.317930377	50.7278481
4.042393896	32.32700422	2.319098712	49.52180028
4.056413925	32.46483826	2.331950405	50.49812471
4.070433953	32.46483826	2.33078207	49.34950774
4.083519313	32.53375527	2.345970434	49.92381622
4.09847401	32.80942335	2.345970434	48.9474918
4.112494039	32.80942335	2.359990463	49.69409283
4.126514068	32.80942335	2.359990463	48.7177684
4.140534096	32.46483826	2.370271817	48.04008439
4.154554125	32.46483826	2.374010491	49.46436943
4.168574154	32.46483826	2.383357177	48.31575246
4.181659514	32.46483826	2.383357177	47.33942804
4.195679542	32.12025316	2.38803052	49.23464604
4.210634239	32.12025316	2.398545541	48.05731364
4.224654268	32.12025316	2.397377206	46.87998125
4.238674297	32.12025316	2.402050548	48.8326301
4.252694325	32.12025316	2.411397234	47.62658228
4.266714354	32.12025316	2.411397234	46.76511955
4.280734382	32.12025316	2.416070577	48.54547586
4.294754411	32.12025316	2.425417263	46.9374121
4.30877444	32.00539147	2.430090606	48.31575246
4.322794468	31.94796062	2.439437291	46.9374121
4.336814497	31.94796062	2.444110634	48.31575246
4.350834526	31.94796062	2.454391989	47.41983122
4.364854554	31.94796062	2.45345732	46.30567276
4.378874583	31.94796062	2.467477349	47.85630567
4.392894611	31.94796062	2.46654268	46.592827
4.40691464	31.94796062	2.477758703	45.97257384
4.420934669	31.94796062	2.481497377	47.39685888
4.434954697	31.94796062	2.490844063	46.24824191
4.448974726	31.94796062	2.490844063	45.38677918
4.462994754	31.94796062	2.495517406	47.16713549
4.477014783	31.94796062	2.504864092	45.55907173
4.491034812	31.94796062	2.509537434	46.9374121
4.50505484	31.94796062	2.51888412	45.73136428
4.519074869	31.94796062	2.523557463	46.76511955
4.533094897	31.94796062	2.534072485	45.68829114
4.547114926	31.94796062	2.537577492	46.42053446
4.561134955	31.94796062	2.546924177	45.21448664
4.575154983	31.94796062	2.55159752	46.24824191
4.589175012	31.94796062	2.560944206	45.21448664
4.603195041	31.94796062	2.565617549	46.24824191
4.617215069	31.94796062	2.575898903	45.42123769
4.631235098	31.94796062	2.588984263	45.90365682
4.645255126	31.94796062	2.588984263	45.04219409
4.659275155	31.94796062	2.603004292	45.90365682
4.673295184	31.94796062	2.603004292	44.9273324
4.687315212	31.94796062	2.61702432	45.90365682
4.701335241	31.94796062	2.61702432	44.86990155
4.715355269	31.94796062	2.631044349	45.90365682
4.729375298	31.94796062	2.631044349	44.52531646
4.743395327	31.94796062	2.645064378	45.90365682
4.757415355	31.94796062	2.645064378	44.52531646
4.771435384	31.94796062	2.659084406	45.78879512
4.785455412	31.94796062	2.658149738	44.52531646
4.799475441	31.94796062	2.673104435	45.55907173
4.81349547	31.94796062	2.673104435	44.52531646
4.827515498	31.94796062	2.687124464	45.55907173
4.841535527	31.94796062	2.687124464	44.52531646
4.855555556	31.94796062	2.701144492	45.55907173
4.869575584	31.94796062	2.701144492	44.52531646
4.883595613	31.94796062	2.715164521	45.55907173
4.897615641	31.94796062	2.715164521	44.52531646
4.91163567	31.94796062	2.729184549	45.55907173
4.925655699	31.94796062	2.729184549	44.52531646
4.939675727	31.94796062	2.743204578	45.55907173
4.953695756	31.94796062	2.743204578	44.52531646
4.967715784	32.00539147	2.757224607	45.55907173
4.981735813	32.12025316	2.757224607	44.52531646
4.995755842	32.12025316	2.771244635	45.55907173
5.00977587	32.12025316	2.771244635	44.52531646
5.023795899	32.12025316	2.785264664	45.55907173
5.037815928	32.12025316	2.785264664	44.52531646
5.051835956	32.12025316	2.799284692	45.55907173
5.065855985	32.12025316	2.799284692	44.52531646
5.079876013	32.12025316	2.813304721	45.55907173
5.093896042	32.12025316	2.813304721	44.52531646
5.107916071	32.12025316	2.82732475	45.55907173
5.121936099	32.12025316	2.82732475	44.52531646
5.135956128	32.12025316	2.841344778	45.32934834
5.149976156	32.12025316	2.841344778	44.41045476
5.163996185	32.12025316	2.855364807	45.21448664
5.178016214	32.12025316	2.855364807	44.35302391
5.192036242	32.12025316	2.869384835	45.21448664
5.206056271	32.12025316	2.869384835	44.35302391
5.220076299	32.06282232	2.8845732	45.12834037
5.234096328	31.94796062	2.881068193	44.35302391
5.248116357	31.94796062	2.897424893	45.55907173
5.262136385	31.94796062	2.897424893	44.52531646
5.276156414	31.94796062	2.911444921	45.55907173
5.290176443	31.94796062	2.911444921	44.52531646
5.304196471	31.94796062	2.92546495	45.55907173
5.3182165	31.94796062	2.92546495	44.52531646
5.332236528	31.94796062	2.940419647	45.4556962
5.346256557	31.94796062	2.934811636	44.697609
5.360276586	31.94796062	2.954439676	45.62798875
5.374296614	31.94796062	2.948831664	45.04219409
5.388316643	31.94796062	2.968693371	46.16209564
5.402336671	31.94796062	2.965188364	45.38677918
5.4163567	31.94796062	2.9827134	46.85126582
5.430376729	31.94796062	2.980376729	45.645218
5.444396757	31.94796062	2.995565093	47.28199719
5.458416786	31.94796062	2.994396757	46.1190225
5.472436814	31.94796062	3.004911779	47.10970464
5.486456843	31.94796062	3.103986648	49.28059072
5.500476872	31.94796062	3.117072008	49.69409283
5.5144969	31.94796062	3.117072008	48.8326301
5.528516929	31.94796062	3.132026705	49.55625879
5.542536958	31.77566807	3.126418693	48.8326301
5.556556986	31.77566807	3.146046733	49.90084388
5.570577015	31.77566807	3.145112065	48.77519925
5.584597043	31.77566807	3.160066762	50.24542897
5.598617072	31.77566807	3.159132093	49.11978434
5.612637101	31.77566807	3.173152122	50.7278481
5.626657129	31.77566807	3.173152122	49.34950774
5.640677158	31.77566807	3.187172151	50.7278481
5.654697186	31.77566807	3.187172151	49.34950774
5.668717215	31.77566807	3.201192179	50.7278481
5.682737244	31.77566807	3.201192179	49.34950774
5.696757272	31.77566807	3.215212208	50.7278481
5.710777301	31.77566807	3.215212208	49.34950774
5.72479733	31.77566807	3.229232237	50.49812471
5.738817358	31.77566807	3.228063901	49.34950774
5.752837387	31.77566807	3.243252265	50.03867792
5.766857415	31.77566807	3.243252265	49.17721519
5.780877444	31.77566807	3.256103958	49.52180028
5.794897473	31.77566807	3.261945637	48.77519925
5.808917501	31.77566807	3.271292322	49.69409283
5.82293753	31.77566807	3.276900334	48.59142053
5.836957558	31.77566807	3.289985694	49.23464604
5.850977587	31.77566807	3.288817358	48.05731364
5.864997616	31.77566807	3.295827372	47.32507032
5.879017644	31.77566807	3.304005722	48.77519925
5.893037673	31.77566807	3.309847401	47.71272855
5.907057701	31.77566807	3.308679065	46.53539616
5.92107773	31.77566807	3.322699094	48.20089076
5.935097759	31.77566807	3.322699094	47.16713549
5.949117787	31.77566807	3.322699094	45.98980309
5.963137816	31.77566807	3.334382451	47.62658228
5.977157845	31.77566807	3.336719123	46.7076887
5.991177873	31.89052977	3.336719123	45.52461322
6.005197902	31.94796062	3.350739151	46.47796531
6.01921793	31.94796062	3.349570815	45.38677918
6.033237959	31.94796062	3.36475918	45.78879512
6.047257988	31.94796062	3.36475918	44.61146273
6.061278016	31.94796062	3.378779208	45.21448664
6.075298045	31.94796062	3.377610873	44.13765823
6.089318073	31.94796062	3.392799237	44.64017815
6.104272771	31.77566807	3.392799237	43.60642288
6.112684788	31.77566807	3.406819266	44.29559306
0.00000000	0.00000000	3.40565093	43.14697609
0.00000000	0.00000000	3.412660944	42.37165963
0.00000000	0.00000000	3.420839294	43.60642288
0.00000000	0.00000000	3.424344301	42.28551336
0.00000000	0.00000000	3.431354316	41.68248945
0.00000000	0.00000000	3.434859323	43.26183779
0.00000000	0.00000000	3.443037673	41.94092827
0.00000000	0.00000000	3.448879351	43.03211439
0.00000000	0.00000000	3.450047687	41.29483122
0.00000000	0.00000000	3.46289938	42.34294421
0.00000000	0.00000000	3.461731044	41.16561181
0.00000000	0.00000000	3.468741059	40.60566104
0.00000000	0.00000000	3.476919409	41.88349742
0.00000000	0.00000000	3.482761087	40.82102672
0.00000000	0.00000000	3.49561278	41.19432724
0.00000000	0.00000000	3.49561278	40.27543366
0.00000000	0.00000000	3.509632809	41.07946554
0.00000000	0.00000000	3.509632809	40.21800281
0.00000000	0.00000000	3.522484502	40.5625879
0.00000000	0.00000000	3.52832618	39.87341772
0.00000000	0.00000000	3.537672866	40.73488045
0.00000000	0.00000000	3.542346209	39.70112518
0.00000000	0.00000000	3.551692895	40.73488045
0.00000000	0.00000000	3.557300906	39.4254571
0.00000000	0.00000000	3.565712923	40.73488045
0.00000000	0.00000000	3.570386266	39.35654008
0.00000000	0.00000000	3.579732952	40.50515706
0.00000000	0.00000000	3.584406295	39.01195499
0.00000000	0.00000000	3.59375298	40.39029536
0.00000000	0.00000000	3.598426323	39.01195499
0.00000000	0.00000000	3.607773009	40.39029536
0.00000000	0.00000000	3.612446352	39.18424754
0.00000000	0.00000000	3.626466381	40.04571027
0.00000000	0.00000000	3.626466381	38.6673699
0.00000000	0.00000000	3.640486409	40.04571027
0.00000000	0.00000000	3.640486409	38.6673699
0.00000000	0.00000000	3.654506438	40.04571027
0.00000000	0.00000000	3.653571769	38.73628692
0.00000000	0.00000000	3.665021459	38.23663854
0.00000000	0.00000000	3.668526466	39.81598687
0.00000000	0.00000000	3.668526466	38.83966245
0.00000000	0.00000000	3.678807821	38.25386779
0.00000000	0.00000000	3.682546495	39.70112518
0.00000000	0.00000000	3.691893181	38.32278481
0.00000000	0.00000000	3.696566524	39.70112518
0.00000000	0.00000000	3.705913209	38.32278481
0.00000000	0.00000000	3.710586552	39.70112518
0.00000000	0.00000000	3.719933238	38.32278481
0.00000000	0.00000000	3.724606581	39.70112518
0.00000000	0.00000000	3.733953267	38.32278481
0.00000000	0.00000000	3.738626609	39.70112518
0.00000000	0.00000000	3.747973295	38.32278481
0.00000000	0.00000000	3.752646638	39.70112518
0.00000000	0.00000000	3.761993324	38.32278481
0.00000000	0.00000000	3.766666667	39.70112518
0.00000000	0.00000000	3.776013352	38.32278481
0.00000000	0.00000000	3.780686695	39.70112518
0.00000000	0.00000000	3.788865045	38.49507736
0.00000000	0.00000000	3.794706724	39.70112518
0.00000000	0.00000000	3.794706724	37.80590717
0.00000000	0.00000000	3.80405341	38.6673699
0.00000000	0.00000000	3.808726753	39.70112518
0.00000000	0.00000000	3.808726753	37.80590717
0.00000000	0.00000000	3.818073438	38.6673699
0.00000000	0.00000000	3.822746781	39.70112518
0.00000000	0.00000000	3.822746781	37.80590717
0.00000000	0.00000000	3.832093467	38.6673699
0.00000000	0.00000000	3.83676681	39.70112518
0.00000000	0.00000000	3.83676681	37.80590717
0.00000000	0.00000000	3.846113495	38.6673699
0.00000000	0.00000000	3.850786838	39.70112518
0.00000000	0.00000000	3.850786838	37.80590717
0.00000000	0.00000000	3.860133524	38.6673699
0.00000000	0.00000000	3.864806867	39.70112518
0.00000000	0.00000000	3.864806867	37.80590717
0.00000000	0.00000000	3.874153553	38.6673699
0.00000000	0.00000000	3.878826896	39.70112518
0.00000000	0.00000000	3.878826896	37.80590717
0.00000000	0.00000000	3.888173581	38.6673699
0.00000000	0.00000000	3.892846924	39.70112518
0.00000000	0.00000000	3.892846924	37.80590717
0.00000000	0.00000000	3.90219361	38.6673699
0.00000000	0.00000000	3.906866953	39.70112518
0.00000000	0.00000000	3.906866953	37.80590717
0.00000000	0.00000000	3.916213639	38.6673699
0.00000000	0.00000000	3.920886981	39.70112518
0.00000000	0.00000000	3.920886981	37.80590717
0.00000000	0.00000000	3.930233667	38.6673699
0.00000000	0.00000000	3.93490701	39.70112518
0.00000000	0.00000000	3.93490701	37.80590717
0.00000000	0.00000000	3.944253696	38.6673699
0.00000000	0.00000000	3.948927039	39.70112518
0.00000000	0.00000000	3.948927039	37.80590717
0.00000000	0.00000000	3.958273724	38.6673699
0.00000000	0.00000000	3.962947067	39.70112518
0.00000000	0.00000000	3.962947067	37.80590717
0.00000000	0.00000000	3.973228422	38.39170183
0.00000000	0.00000000	3.976967096	39.70112518
0.00000000	0.00000000	3.985145446	38.49507736
0.00000000	0.00000000	3.990987124	39.70112518
0.00000000	0.00000000	3.990987124	37.86333802
0.00000000	0.00000000	4.001268479	38.39170183
0.00000000	0.00000000	4.005007153	39.70112518
0.00000000	0.00000000	4.014353839	38.32278481
0.00000000	0.00000000	4.019027182	39.70112518
0.00000000	0.00000000	4.028373867	38.32278481
0.00000000	0.00000000	4.03304721	39.70112518
0.00000000	0.00000000	4.042393896	38.32278481
0.00000000	0.00000000	4.048235575	39.6149789
0.00000000	0.00000000	4.056413925	38.20792311
0.00000000	0.00000000	4.061087268	40.04571027
0.00000000	0.00000000	4.062255603	38.83966245
0.00000000	0.00000000	4.075107296	40.04571027
0.00000000	0.00000000	4.075107296	38.6673699
0.00000000	0.00000000	4.089127325	40.04571027
0.00000000	0.00000000	4.089127325	38.6673699
0.00000000	0.00000000	4.104082022	39.90787623
0.00000000	0.00000000	4.101979018	38.6673699
0.00000000	0.00000000	4.117167382	40.39029536
0.00000000	0.00000000	4.117167382	39.01195499
0.00000000	0.00000000	4.131187411	40.39029536
0.00000000	0.00000000	4.131187411	39.01195499
0.00000000	0.00000000	4.145207439	40.39029536
0.00000000	0.00000000	4.145207439	39.01195499
0.00000000	0.00000000	4.159227468	40.39029536
0.00000000	0.00000000	4.159227468	39.01195499
0.00000000	0.00000000	4.173247496	40.39029536
0.00000000	0.00000000	4.173247496	39.01195499
0.00000000	0.00000000	4.187267525	40.39029536
0.00000000	0.00000000	4.187267525	39.01195499
0.00000000	0.00000000	4.201287554	40.39029536
0.00000000	0.00000000	4.201287554	39.01195499
0.00000000	0.00000000	4.215307582	40.39029536
0.00000000	0.00000000	4.215307582	39.01195499
0.00000000	0.00000000	4.229327611	40.39029536
0.00000000	0.00000000	4.229327611	39.01195499
0.00000000	0.00000000	4.243347639	40.39029536
0.00000000	0.00000000	4.242179304	39.18424754
0.00000000	0.00000000	4.248020982	38.49507736
0.00000000	0.00000000	4.257367668	40.16057196
0.00000000	0.00000000	4.257367668	39.12681669
0.00000000	0.00000000	4.263209347	38.49507736
0.00000000	0.00000000	4.271387697	40.04571027
0.00000000	0.00000000	4.27606104	38.6673699
0.00000000	0.00000000	4.285407725	40.04571027
0.00000000	0.00000000	4.290081068	38.6673699
0.00000000	0.00000000	4.299427754	40.04571027
0.00000000	0.00000000	4.302932761	38.83966245
0.00000000	0.00000000	4.30877444	38.15049226
0.00000000	0.00000000	4.313447783	40.04571027
0.00000000	0.00000000	4.318121125	39.01195499
0.00000000	0.00000000	4.322794468	38.15049226
0.00000000	0.00000000	4.327467811	40.04571027
0.00000000	0.00000000	4.332141154	39.01195499
0.00000000	0.00000000	4.336814497	38.15049226
0.00000000	0.00000000	4.34148784	39.93084857
0.00000000	0.00000000	4.347329518	39.01195499
0.00000000	0.00000000	4.352002861	38.15049226
0.00000000	0.00000000	4.360181211	39.70112518
0.00000000	0.00000000	4.364854554	38.32278481
0.00000000	0.00000000	4.37420124	39.70112518
0.00000000	0.00000000	4.378874583	38.32278481
0.00000000	0.00000000	4.388221268	39.70112518
0.00000000	0.00000000	4.392894611	38.32278481
0.00000000	0.00000000	4.402241297	39.70112518
0.00000000	0.00000000	4.40691464	38.32278481
0.00000000	0.00000000	4.416261326	39.70112518
0.00000000	0.00000000	4.420934669	38.32278481
0.00000000	0.00000000	4.430281354	39.70112518
0.00000000	0.00000000	4.434954697	38.32278481
0.00000000	0.00000000	4.444301383	39.70112518
0.00000000	0.00000000	4.448974726	38.32278481
0.00000000	0.00000000	4.458321412	39.70112518
0.00000000	0.00000000	4.462994754	38.32278481
0.00000000	0.00000000	4.47234144	39.70112518
0.00000000	0.00000000	4.476080114	38.39170183
0.00000000	0.00000000	4.486361469	39.70112518
0.00000000	0.00000000	4.486361469	37.80590717
0.00000000	0.00000000	4.491034812	38.6673699
0.00000000	0.00000000	4.500381497	39.70112518
0.00000000	0.00000000	4.500381497	37.80590717
0.00000000	0.00000000	4.50505484	38.6673699
0.00000000	0.00000000	4.514401526	39.70112518
0.00000000	0.00000000	4.514401526	37.80590717
0.00000000	0.00000000	4.519074869	38.6673699
0.00000000	0.00000000	4.528421555	39.70112518
0.00000000	0.00000000	4.528421555	37.80590717
0.00000000	0.00000000	4.533094897	38.6673699
0.00000000	0.00000000	4.542441583	39.70112518
0.00000000	0.00000000	4.542441583	37.80590717
0.00000000	0.00000000	4.547114926	38.6673699
0.00000000	0.00000000	4.556461612	39.70112518
0.00000000	0.00000000	4.556461612	37.80590717
0.00000000	0.00000000	4.561134955	38.6673699
0.00000000	0.00000000	4.57048164	39.70112518
0.00000000	0.00000000	4.57048164	37.80590717
0.00000000	0.00000000	4.575154983	38.6673699
0.00000000	0.00000000	4.584501669	39.70112518
0.00000000	0.00000000	4.584501669	37.80590717
0.00000000	0.00000000	4.589175012	38.6673699
0.00000000	0.00000000	4.598521698	39.70112518
0.00000000	0.00000000	4.598521698	37.80590717
0.00000000	0.00000000	4.603195041	38.6673699
0.00000000	0.00000000	4.612541726	39.70112518
0.00000000	0.00000000	4.612541726	37.80590717
0.00000000	0.00000000	4.617215069	38.6673699
0.00000000	0.00000000	4.626561755	39.70112518
0.00000000	0.00000000	4.626561755	37.80590717
0.00000000	0.00000000	4.631235098	38.6673699
0.00000000	0.00000000	4.640581784	39.70112518
0.00000000	0.00000000	4.640581784	37.80590717
0.00000000	0.00000000	4.645255126	38.6673699
0.00000000	0.00000000	4.654601812	39.70112518
0.00000000	0.00000000	4.654601812	37.80590717
0.00000000	0.00000000	4.659275155	38.6673699
0.00000000	0.00000000	4.668621841	39.47140178
0.00000000	0.00000000	4.669556509	37.94374121
0.00000000	0.00000000	4.682641869	39.35654008
0.00000000	0.00000000	4.682641869	37.97819972
0.00000000	0.00000000	4.696661898	39.35654008
0.00000000	0.00000000	4.696661898	37.97819972
0.00000000	0.00000000	4.710681927	39.35654008
0.00000000	0.00000000	4.710681927	37.97819972
0.00000000	0.00000000	4.724701955	39.35654008
0.00000000	0.00000000	4.724701955	37.97819972
0.00000000	0.00000000	4.738721984	39.35654008
0.00000000	0.00000000	4.738721984	37.97819972
0.00000000	0.00000000	4.752742012	39.35654008
0.00000000	0.00000000	4.752742012	37.97819972
0.00000000	0.00000000	4.766762041	39.35654008
0.00000000	0.00000000	4.766762041	37.97819972
0.00000000	0.00000000	4.78078207	39.35654008
0.00000000	0.00000000	4.78078207	37.97819972
0.00000000	0.00000000	4.794802098	39.35654008
0.00000000	0.00000000	4.794802098	37.97819972
0.00000000	0.00000000	4.808822127	39.35654008
0.00000000	0.00000000	4.808822127	37.97819972
0.00000000	0.00000000	4.822842155	39.35654008
0.00000000	0.00000000	4.822842155	37.97819972
0.00000000	0.00000000	4.836862184	39.35654008
0.00000000	0.00000000	4.836862184	37.97819972
0.00000000	0.00000000	4.850882213	39.35654008
0.00000000	0.00000000	4.850882213	37.97819972
0.00000000	0.00000000	4.864902241	39.35654008
0.00000000	0.00000000	4.864902241	37.97819972
0.00000000	0.00000000	4.87892227	39.35654008
0.00000000	0.00000000	4.87892227	37.97819972
0.00000000	0.00000000	4.892942299	39.35654008
0.00000000	0.00000000	4.892942299	37.97819972
0.00000000	0.00000000	4.906962327	39.35654008
0.00000000	0.00000000	4.906962327	37.97819972
0.00000000	0.00000000	4.920982356	39.35654008
0.00000000	0.00000000	4.920982356	37.97819972
0.00000000	0.00000000	4.935002384	39.35654008
0.00000000	0.00000000	4.935002384	37.97819972
0.00000000	0.00000000	4.949022413	39.35654008
0.00000000	0.00000000	4.949022413	37.97819972
0.00000000	0.00000000	4.963042442	39.35654008
0.00000000	0.00000000	4.963042442	37.97819972
0.00000000	0.00000000	4.978230806	39.27039381
0.00000000	0.00000000	4.976127802	37.94374121
0.00000000	0.00000000	4.991082499	39.70112518
0.00000000	0.00000000	4.991082499	38.6673699
0.00000000	0.00000000	4.991082499	37.80590717
0.00000000	0.00000000	5.005102527	39.70112518
0.00000000	0.00000000	5.005102527	38.6673699
0.00000000	0.00000000	5.005102527	37.80590717
0.00000000	0.00000000	5.019122556	39.70112518
0.00000000	0.00000000	5.019122556	38.6673699
0.00000000	0.00000000	5.019122556	37.80590717
0.00000000	0.00000000	5.033142585	39.70112518
0.00000000	0.00000000	5.033142585	38.6673699
0.00000000	0.00000000	5.033142585	37.80590717
0.00000000	0.00000000	5.047162613	39.70112518
0.00000000	0.00000000	5.048097282	38.39170183
0.00000000	0.00000000	5.04248927	37.80590717
0.00000000	0.00000000	5.061182642	39.70112518
0.00000000	0.00000000	5.061182642	38.32278481
0.00000000	0.00000000	5.07520267	39.70112518
0.00000000	0.00000000	5.07520267	38.32278481
0.00000000	0.00000000	5.089222699	39.70112518
0.00000000	0.00000000	5.089222699	38.32278481
0.00000000	0.00000000	5.103242728	39.70112518
0.00000000	0.00000000	5.103242728	38.32278481
0.00000000	0.00000000	5.117262756	39.70112518
0.00000000	0.00000000	5.117262756	38.32278481
0.00000000	0.00000000	5.131282785	39.70112518
0.00000000	0.00000000	5.131282785	38.32278481
0.00000000	0.00000000	5.145302814	39.70112518
0.00000000	0.00000000	5.145302814	38.32278481
0.00000000	0.00000000	5.159322842	39.70112518
0.00000000	0.00000000	5.159322842	38.32278481
0.00000000	0.00000000	5.174511206	39.6149789
0.00000000	0.00000000	5.172408202	38.2883263
0.00000000	0.00000000	5.187362899	39.93084857
0.00000000	0.00000000	5.187362899	38.8970933
0.00000000	0.00000000	5.187362899	38.09306142
0.00000000	0.00000000	5.201382928	39.70112518
0.00000000	0.00000000	5.201382928	38.32278481
0.00000000	0.00000000	5.215402957	39.70112518
0.00000000	0.00000000	5.215402957	38.32278481
0.00000000	0.00000000	5.229422985	39.70112518
0.00000000	0.00000000	5.229422985	38.32278481
0.00000000	0.00000000	5.243443014	39.70112518
0.00000000	0.00000000	5.243443014	38.32278481
0.00000000	0.00000000	5.257463042	39.70112518
0.00000000	0.00000000	5.257463042	38.32278481
0.00000000	0.00000000	5.271483071	39.70112518
0.00000000	0.00000000	5.271483071	38.32278481
0.00000000	0.00000000	5.2855031	39.70112518
0.00000000	0.00000000	5.2855031	38.32278481
0.00000000	0.00000000	5.299523128	39.70112518
0.00000000	0.00000000	5.299523128	38.32278481
0.00000000	0.00000000	5.313543157	39.70112518
0.00000000	0.00000000	5.313543157	38.32278481
0.00000000	0.00000000	5.327563186	39.70112518
0.00000000	0.00000000	5.327563186	38.32278481
0.00000000	0.00000000	5.341583214	39.70112518
0.00000000	0.00000000	5.341583214	38.6673699
0.00000000	0.00000000	5.341583214	37.80590717
0.00000000	0.00000000	5.355603243	39.70112518
0.00000000	0.00000000	5.355603243	38.6673699
0.00000000	0.00000000	5.355603243	37.80590717
0.00000000	0.00000000	5.369623271	39.70112518
0.00000000	0.00000000	5.369623271	38.6673699
0.00000000	0.00000000	5.369623271	37.80590717
0.00000000	0.00000000	5.3836433	39.70112518
0.00000000	0.00000000	5.3836433	38.6673699
0.00000000	0.00000000	5.3836433	37.80590717
0.00000000	0.00000000	5.397663329	39.70112518
0.00000000	0.00000000	5.397663329	38.6673699
0.00000000	0.00000000	5.397663329	37.80590717
0.00000000	0.00000000	5.411683357	39.70112518
0.00000000	0.00000000	5.411683357	38.6673699
0.00000000	0.00000000	5.411683357	37.80590717
0.00000000	0.00000000	5.425703386	39.70112518
0.00000000	0.00000000	5.425703386	38.6673699
0.00000000	0.00000000	5.425703386	37.80590717
0.00000000	0.00000000	5.439723414	39.70112518
0.00000000	0.00000000	5.439723414	38.6673699
0.00000000	0.00000000	5.439723414	37.80590717
0.00000000	0.00000000	5.453743443	39.47140178
0.00000000	0.00000000	5.453743443	38.43764651
0.00000000	0.00000000	5.453743443	37.69104548
0.00000000	0.00000000	5.467763472	39.35654008
0.00000000	0.00000000	5.467763472	37.97819972
0.00000000	0.00000000	5.4817835	39.35654008
0.00000000	0.00000000	5.4817835	37.97819972
0.00000000	0.00000000	5.495803529	39.35654008
0.00000000	0.00000000	5.495803529	37.97819972
0.00000000	0.00000000	5.509823557	39.35654008
0.00000000	0.00000000	5.509823557	37.97819972
0.00000000	0.00000000	5.523843586	39.35654008
0.00000000	0.00000000	5.523843586	37.97819972
0.00000000	0.00000000	5.537863615	39.35654008
0.00000000	0.00000000	5.537863615	37.97819972
0.00000000	0.00000000	5.551883643	39.35654008
0.00000000	0.00000000	5.550715308	38.15049226
0.00000000	0.00000000	5.556556986	37.46132208
0.00000000	0.00000000	5.565903672	39.35654008
0.00000000	0.00000000	5.565903672	38.32278481
0.00000000	0.00000000	5.570577015	37.51875293
0.00000000	0.00000000	5.579923701	39.35654008
0.00000000	0.00000000	5.579923701	38.32278481
0.00000000	0.00000000	5.584597043	37.46132208
0.00000000	0.00000000	5.593943729	39.35654008
0.00000000	0.00000000	5.593943729	38.32278481
0.00000000	0.00000000	5.598617072	37.46132208
0.00000000	0.00000000	5.607963758	39.35654008
0.00000000	0.00000000	5.607963758	38.32278481
0.00000000	0.00000000	5.612637101	37.46132208
0.00000000	0.00000000	5.621983786	39.35654008
0.00000000	0.00000000	5.621983786	38.32278481
0.00000000	0.00000000	5.626657129	37.46132208
0.00000000	0.00000000	5.636003815	39.35654008
0.00000000	0.00000000	5.636003815	38.32278481
0.00000000	0.00000000	5.640677158	37.46132208
0.00000000	0.00000000	5.650023844	39.35654008
0.00000000	0.00000000	5.650023844	38.32278481
0.00000000	0.00000000	5.654697186	37.46132208
0.00000000	0.00000000	5.664043872	39.35654008
0.00000000	0.00000000	5.664043872	38.32278481
0.00000000	0.00000000	5.668717215	37.51875293
0.00000000	0.00000000	5.678063901	39.35654008
0.00000000	0.00000000	5.678998569	38.04711674
0.00000000	0.00000000	5.692083929	39.35654008
0.00000000	0.00000000	5.692083929	37.97819972
0.00000000	0.00000000	5.706103958	39.35654008
0.00000000	0.00000000	5.706103958	37.97819972
0.00000000	0.00000000	5.720123987	39.35654008
0.00000000	0.00000000	5.720123987	37.97819972
0.00000000	0.00000000	5.734144015	39.35654008
0.00000000	0.00000000	5.734144015	37.97819972
0.00000000	0.00000000	5.748164044	39.35654008
0.00000000	0.00000000	5.748164044	37.97819972
0.00000000	0.00000000	5.762184072	39.35654008
0.00000000	0.00000000	5.762184072	37.97819972
0.00000000	0.00000000	5.776204101	39.35654008
0.00000000	0.00000000	5.776204101	37.97819972
0.00000000	0.00000000	5.79022413	39.24167839
0.00000000	0.00000000	5.789289461	37.97819972
0.00000000	0.00000000	5.804244158	39.01195499
0.00000000	0.00000000	5.804244158	37.97819972
0.00000000	0.00000000	5.818264187	39.01195499
0.00000000	0.00000000	5.818264187	37.97819972
0.00000000	0.00000000	5.832284216	39.01195499
0.00000000	0.00000000	5.832284216	37.97819972
0.00000000	0.00000000	5.846304244	39.01195499
0.00000000	0.00000000	5.846304244	37.97819972
0.00000000	0.00000000	5.860324273	39.01195499
0.00000000	0.00000000	5.860324273	37.97819972
0.00000000	0.00000000	5.874344301	39.01195499
0.00000000	0.00000000	5.874344301	37.97819972
0.00000000	0.00000000	5.88836433	38.6673699
0.00000000	0.00000000	5.88836433	37.80590717
0.00000000	0.00000000	5.902384359	38.6673699
0.00000000	0.00000000	5.902384359	37.80590717
0.00000000	0.00000000	5.916404387	38.6673699
0.00000000	0.00000000	5.916404387	37.80590717
0.00000000	0.00000000	5.930424416	38.6673699
0.00000000	0.00000000	5.930424416	37.63361463
0.00000000	0.00000000	5.944444444	38.6673699
0.00000000	0.00000000	5.94561278	37.46132208
0.00000000	0.00000000	5.958464473	39.01195499
0.00000000	0.00000000	5.958464473	37.97819972
0.00000000	0.00000000	5.958464473	37.11673699
0.00000000	0.00000000	5.972484502	39.01195499
0.00000000	0.00000000	5.97341917	37.70253165
0.00000000	0.00000000	5.967811159	37.11673699
0.00000000	0.00000000	5.98650453	39.01195499
0.00000000	0.00000000	5.985569862	37.70253165
0.00000000	0.00000000	5.995851216	37.17416784
0.00000000	0.00000000	6.000524559	39.01195499
0.00000000	0.00000000	6.001692895	37.80590717
0.00000000	0.00000000	6.014544588	39.35654008
0.00000000	0.00000000	6.015712923	38.15049226
0.00000000	0.00000000	6.012207916	37.46132208
0.00000000	0.00000000	6.028564616	39.35654008
0.00000000	0.00000000	6.028564616	37.97819972
0.00000000	0.00000000	6.042584645	39.35654008
0.00000000	0.00000000	6.041416309	38.15049226
0.00000000	0.00000000	6.047257988	37.46132208
0.00000000	0.00000000	6.056604673	39.35654008
0.00000000	0.00000000	6.056604673	38.32278481
0.00000000	0.00000000	6.061278016	37.46132208
0.00000000	0.00000000	6.070624702	39.35654008
0.00000000	0.00000000	6.071793038	38.15049226
0.00000000	0.00000000	6.075298045	37.54746835
0.00000000	0.00000000	6.084644731	39.35654008
0.00000000	0.00000000	6.085579399	38.04711674
0.00000000	0.00000000	6.098664759	39.35654008
0.00000000	0.00000000	6.097496423	38.15049226
0.00000000	0.00000000	6.103338102	37.46132208
0.00000000	0.00000000	6.110348116	39.18424754
0.00000000	0.00000000	6.110348116	38.15049226
