#4K - CH		            4K MP
#t(days)    T(K)        t(days)    T(K)
0.101545269	288.1851108	0.027738178	308.1435894
0.101545269	282.4535644	0.16151353	306.0870652
0.101545269	277.145144	0.166126473	295.348515
0.106158212	270.967041	0.175352359	305.0639557
0.110771155	264.5130441	0.179965302	294.3612997
0.110771155	287.2218394	0.189191188	304.7236797
0.110771155	280.5684932	0.194957367	293.0501436
0.116537334	258.9053246	0.207642961	292.0706106
0.115384098	252.6258161	0.22148179	292.0706106
0.115384098	273.1531798	0.23532062	297.9973061
0.121150277	247.4633589	0.23532062	290.1213561
0.119997041	241.8659268	0.249159449	295.678322
0.119997041	267.7205948	0.249159449	289.1516128
0.12576322	237.9169943	0.262998279	288.8290858
0.131529399	244.5803847	0.276837108	287.2218394
0.133835871	231.628943	0.291598526	284.7323755
0.136142342	237.3203088	0.303361531	285.3049452
0.143061757	227.5930029	0.310280946	281.9811125
0.153210232	223.4402798	0.322966539	283.0847318
0.152287643	218.5081301	0.322966539	278.6960029
0.166126473	222.445023	0.336805369	278.6960029
0.164973237	217.5348423	0.343724783	288.1851108
0.171892652	214.1026032	0.349490962	278.6960029
0.175352359	220.4677891	0.364483028	276.2187742
0.18150295	212.9706	0.378321857	275.9106729
0.216868847	207.5734046	0.392160686	273.7635647
0.22148179	203.6722788	0.407152752	272.2401533
0.230707677	206.6488227	0.419838345	271.3301787
0.230707677	201.6367472	0.433677175	271.3301787
0.244546506	205.269666	0.447516004	269.7450358
0.244546506	201.4118365	0.461354834	268.6184638
0.258385335	202.0873223	0.475193663	266.8257269
0.258385335	199.1764816	0.489032492	264.1590302
0.271070929	199.0653674	0.502871322	265.9338502
0.276837108	197.4060734	0.502871322	261.2272801
0.290675937	197.626511	0.516710151	264.1590302
0.305668003	196.088602	0.516710151	259.1944366
0.317431008	194.1288628	0.530548981	261.2272801
0.328502071	192.0600576	0.530548981	257.4645949
0.341418312	192.8332633	0.532855452	267.7205948
0.341418312	189.4204474	0.54438781	259.4838714
0.355257141	192.8332633	0.54438781	255.746298
0.355257141	188.9981144	0.558226639	256.6040081
0.369095971	191.5463104	0.572065469	255.746298
0.369095971	188.1562713	0.585904298	253.7561069
0.3829348	188.9981144	0.599743128	252.0625601
0.380628329	186.7962665	0.612659368	252.0625601
0.39677363	186.9005323	0.628574022	251.2200299
0.401386573	184.4141405	0.638953144	253.3316564
0.415225402	184.0029696	0.641259616	249.2650618
0.429064232	183.7977281	0.656251681	247.8779772
0.442903061	182.9790488	0.669859863	245.7295219
0.455588655	181.2514429	0.682776104	247.0494342
0.461354834	179.7406355	0.682776104	242.948076
0.475193663	179.7406355	0.696614934	247.0494342
0.489032492	179.1398445	0.697768169	241.3266611
0.502871322	178.5410617	0.710453763	243.7628641
0.515556915	177.0528465	0.710453763	239.1815951
0.521323094	174.9901622	0.717373178	248.7092989
0.534008688	174.6974612	0.723370004	240.5200161
0.540928103	172.6622174	0.733518479	238.1162227
0.553613696	174.4052499	0.747357308	238.1162227
0.553613696	171.318578	0.761196138	236.791178
0.567452526	174.0163949	0.776188203	234.9484937
0.567452526	170.7459381	0.788873796	234.163168
0.581291355	172.4696256	0.80155939	234.163168
0.581291355	169.9853946	0.817474044	234.163168
0.594207596	169.7957886	0.830390285	231.5643248
0.608969014	168.6625859	0.844229114	230.0188841
0.606662542	166.6976491	0.858990532	228.2798496
0.622807843	167.1634048	0.871906773	227.9743289
0.636646673	166.4188188	0.885745602	227.9743289
0.650485502	166.4188188	0.894971489	229.5060327
0.664324332	164.7556039	0.899584432	225.4441721
0.673550218	162.9725405	0.91434585	223.7397242
0.686466459	162.2375681	0.92726209	224.9415204
0.697537522	160.6161413	0.92726209	221.2071838
0.710453763	162.0204357	0.94110092	223.4402798
0.710453763	159.1529537	0.94110092	219.4857725
0.724292592	161.659194	0.954939749	223.4402798
0.724292592	158.620978	0.955862338	217.8263725
0.738131422	159.865031	0.968778579	219.9762328
0.73582495	158.0025866	0.968778579	216.5658897
0.751047663	157.7383002	0.981464172	217.352834
0.761196138	156.0311814	0.996456238	215.3607661
0.775034967	155.4662574	1.010295067	213.2084181
0.788873796	154.7737733	1.022980661	213.2084181
0.802712626	154.6011347	1.037972726	211.7854831
0.816551455	153.7408262	1.051811555	211.7854831
0.825777341	151.5263625	1.064497149	211.7854831
0.838693582	150.7168018	1.070263328	210.0201616
0.849764646	149.2105153	1.085024746	207.851585
0.862680887	150.5150884	1.097940987	208.9680396
0.862680887	147.8512311	1.097940987	205.4988846
0.876519716	150.1794991	1.111779816	208.9680396
0.876519716	147.3570319	1.112933052	204.1274024
0.890358545	148.5127426	1.125618645	207.5734046
0.888052074	146.7825535	1.125618645	202.0873223
0.903044139	146.5370346	1.137151003	206.1880773
0.913423261	144.5876101	1.139457475	201.9520441
0.92726209	144.4263334	1.152143068	202.0873223
0.94110092	143.7830238	1.159062483	199.3988962
0.954939749	143.3024227	1.170594841	199.3988962
0.967625343	141.4749535	1.177514256	197.4060734
0.97492917	139.8267554	1.189277261	198.3335667
0.986077115	140.2956999	1.199425736	196.088602
0.991843294	138.1206628	1.204038679	198.9543152
1.001069181	140.7662172	1.214187154	196.4829175
1.006604712	137.7819505	1.227103394	196.878026
1.019520953	139.2039334	1.238635752	199.0653674
1.019520953	136.740264	1.24209546	194.4541206
1.032206547	137.0458222	1.253627818	193.4799786
1.043508258	134.8609508	1.259393996	190.9060584
1.056424498	134.3201974	1.268619883	194.1288628
1.070263328	133.7219029	1.274386062	190.5867354
1.084102157	133.4237558	1.287071655	194.1288628
1.096787751	132.3116123	1.285918419	189.6319676
1.10255393	131.2087391	1.291684598	187.1092387
1.116392759	130.7701681	1.298604013	194.4541206
1.130231589	130.6243038	1.300910485	190.2679466
1.144070418	130.0424717	1.306676664	187.4227352
1.156756012	128.8146692	1.318209021	187.736757
1.164059838	127.3139647	1.3239752	185.653174
1.17636102	126.8884122	1.33781403	185.653174
1.185586906	125.0607273	1.347962505	183.7567073
1.190199849	127.3139647	1.35972551	184.0029696
1.200578971	125.0956256	1.366644924	182.1640161
1.204038679	126.8884122	1.379330518	182.7749494
1.213264565	124.3648022	1.392016112	183.3879316
1.217877508	126.1823166	1.398935526	180.645602
1.228025983	123.8661353	1.412543709	179.3799195
1.240942224	123.328169	1.425459949	179.1398445
1.25016811	122.0956086	1.438145543	179.7406355
1.26400694	121.6196131	1.443911722	177.3494938
1.277845769	121.4839556	1.450831137	180.3434413
1.291684598	121.0778901	1.457750551	176.9540743
1.305523428	120.6731819	1.470436145	176.1658783
1.314749314	118.9682093	1.47735556	173.967849
1.327665555	118.2731831	1.490041153	175.5770361
1.338736618	117.2480632	1.490041153	172.2772487
1.351652859	118.2731831	1.503879983	175.5770361
1.351652859	116.0503618	1.503879983	170.9366051
1.365491689	117.7463658	1.517718812	175.9693785
1.365491689	115.6624584	1.516565576	171.5098844
1.379330518	117.2218952	1.522331755	169.2282388
1.379330518	115.4045767	1.531557642	171.318578
1.392246759	115.14727	1.536170585	169.0394774
1.405854941	114.3787869	1.550009414	169.0394774
1.41162112	113.1093621	1.560157889	167.2007214
1.425459949	112.9831971	1.57307413	166.4188188
1.439298779	112.8571728	1.586912959	166.4188188
1.453137608	112.4799427	1.600751789	167.5369461
1.466976438	111.5423748	1.600751789	164.7556039
1.47735556	110.0584943	1.612284147	167.8176498
1.488887918	109.8744027	1.614590618	164.3882638
1.495807332	108.6852897	1.624739093	162.781673
1.508492926	109.8744027	1.637655334	163.8387888
1.508492926	107.8094278	1.637655334	160.9391251
1.522331755	109.3849957	1.651494163	163.1090115
1.522331755	107.4490701	1.652647399	159.3306751
1.536170585	108.4127117	1.665332993	163.1090115
1.536170585	106.8511485	1.665332993	158.7981053
1.548856178	106.970466	1.67686535	163.1090115
1.5592353	105.547407	1.679171822	159.865031
1.57307413	105.1946101	1.679171822	157.211053
1.586912959	104.8429925	1.693010651	158.7981053
1.600751789	104.726048	1.693010651	156.5107972
1.614590618	103.6215606	1.705696245	156.6855682
1.623816504	102.5287216	1.71261566	154.9898426
1.637655334	102.5287216	1.725301253	154.6011347
1.651494163	102.0720341	1.738217494	154.8083241
1.664179757	101.5606916	1.748365969	153.0560276
1.671099172	100.3774988	1.752978912	155.639862
1.682631529	100.0419826	1.762204799	152.714773
1.69393324	99.17487966	1.762204799	155.639862
1.706849481	100.0419826	1.772353273	151.2222689
1.706849481	98.05230568	1.785269514	152.5444311
1.72068831	99.3743109	1.785269514	149.6775175
1.72068831	97.50667429	1.795648636	147.7687496
1.73452714	98.71109517	1.799108344	151.5263625
1.73452714	97.0723561	1.80833423	147.5215812
1.749519205	97.0723561	1.812947173	151.5263625
1.762204799	96.96407917	1.821019824	148.0163323
1.762204799	95.46082235	1.827939238	146.2919264
1.774890392	95.46082235	1.839471596	146.2919264
1.789882457	95.14174035	1.846775423	144.5876101
1.803721287	94.82372491	1.857923369	144.8298627
1.817560116	93.71901853	1.864842783	143.2624452
1.827708591	92.25577388	1.876605788	143.8151211
1.840624832	92.93783088	1.886754263	142.1872582
1.840624832	91.1911612	1.891367206	144.5876101
1.854463661	92.52386342	1.901746328	141.711991
1.854463661	90.88635074	1.900593093	144.5876101
1.868302491	92.11173987	1.913278686	141.2383124
1.868302491	90.48152107	1.919044865	139.0486618
1.880988084	90.63312045	1.928270752	141.711991
1.887907499	89.57723506	1.932883695	138.4293056
1.899439857	89.1284868	1.943262817	136.7021172
1.905206036	88.38556318	1.946722524	141.0807717
1.919044865	88.38556318	1.946722524	138.4293056
1.933806283	87.61949096	1.956870999	136.6792342
1.946722524	87.50222448	1.958254882	140.7662172
1.946722524	86.14565701	1.96978724	137.6589884
1.959408118	86.04956799	1.96978724	135.5248289
1.965174297	84.71552139	1.983626069	136.13119
1.974400183	85.95358615	1.983626069	134.0207163
1.979013126	84.33817807	1.997464899	135.222662
1.988239012	85.3799392	1.997464899	132.977781
1.994005191	83.8454645	2.011303728	134.3201974
2.006690785	83.68186714	2.011303728	132.0902986
2.006690785	82.38452756	2.025142557	134.3201974
2.019376379	82.38452756	2.025142557	131.9429617
2.034368444	82.10915366	2.036674915	133.4237558
2.048207273	81.56116413	2.040134623	130.8796732
2.058355748	80.58398279	2.052820216	131.6487809
2.070118753	80.20713735	2.052820216	129.4632313
2.081420464	79.40553508	2.066659046	131.6487809
2.094336705	80.02830705	2.066659046	129.4632313
2.094336705	78.52425842	2.080497875	131.0623856
2.108175534	79.49420491	2.080497875	128.4557619
2.108175534	78.00019417	2.094336705	128.7428076
2.122014363	78.61194415	2.094336705	126.4642821
2.119707892	77.69610672	2.108175534	128.1693561
2.135853193	77.04847682	2.109098123	124.9491182
2.149692022	76.53426181	2.122014363	128.1693561
2.163530852	76.36362058	2.122014363	125.6202702
2.177369681	75.64262961	2.122014363	123.5348021
2.186595567	74.84486885	2.13124025	128.1693561
2.200434397	74.59469659	2.135853193	125.6202702
2.214273226	74.51149179	2.135853193	123.3970083
2.228112056	74.0968579	2.149692022	124.2260826
2.237337942	73.21319151	2.149692022	122.1637599
2.250254183	72.6394005	2.163530852	122.8473683
2.261325246	71.96160275	2.163530852	120.8079341
2.274241487	72.54218278	2.177369681	122.3001766
2.274241487	71.09943341	2.177369681	120.2698265
2.288080316	72.21906245	2.19120851	122.3001766
2.288080316	70.9409097	2.19120851	120.0016722
2.30076591	71.09943341	2.20504734	120.9428368
2.307685325	70.15357707	2.20504734	118.2731831
2.31944833	69.68537805	2.218886169	119.3338992
2.334209748	69.37498261	2.218886169	116.9605366
2.348048577	69.22030374	2.229034644	115.6882782
2.360734171	68.7583333	2.232724999	119.0678317
2.367653585	68.01419797	2.241950885	116.6997607
2.379185943	67.84362129	2.241950885	114.7623852
2.386105358	66.99713349	2.246563828	118.5374749
2.398790952	67.39083871	2.256712303	115.2244017
2.398790952	66.19813719	2.269628544	115.14727
2.412629781	67.2405837	2.269628544	113.1093621
2.412629781	65.97686701	2.283467373	113.8693162
2.425315375	66.05054144	2.283467373	112.1039736
2.436617085	65.12822565	2.297306203	113.6154325
2.449533326	64.73690055	2.297306203	111.7292611
2.463372156	64.3766593	2.311145032	113.6154325
2.477210985	64.16147749	2.312298268	110.9835895
2.489896579	63.34325597	2.324983861	111.8540259
2.497200405	62.60530037	2.323830626	109.5071427
2.509501587	62.74519743	2.335132336	107.9780081
2.509501587	61.70354142	2.338822691	110.8597956
2.523340416	62.60530037	2.346895341	108.0503375
2.523340416	61.428699	2.35266152	110.612622
2.537179246	61.91047991	2.35266152	106.6129126
2.537179246	60.81477128	2.361887407	108.4127117
2.551018075	61.08686689	2.361887407	110.612622
2.551018075	60.07274142	2.36650035	106.3752078
2.564856905	60.07274142	2.375726236	107.6891745
2.578695734	59.80516298	2.381492415	105.2826986
2.591611975	59.33976542	2.394178008	106.019644
2.602683038	58.51115749	2.394178008	104.1432793
2.615599279	58.41980714	2.408016838	105.547407
2.615599279	57.38587739	2.408016838	103.6794001
2.629438109	58.15959127	2.421855667	105.0772734
2.629438109	57.13026689	2.420702432	102.7578311
2.643276938	57.38587739	2.431081554	101.5040341
2.640970466	56.71732588	2.435694497	103.4482359
2.654809296	56.81235425	2.446073619	101.6457371
2.657115767	55.86919154	2.449533326	103.1024556
2.670954597	55.74462526	2.458759212	100.8266048
2.684793426	55.49632529	2.463372156	102.300123
2.694019312	54.62071081	2.469138334	99.54080991
2.707858142	54.39259109	2.479517457	100.7141402
2.721696971	53.8489833	2.480670692	98.381149
2.731845446	52.95501659	2.487590107	97.23499825
2.744761687	52.95501659	2.500275701	100.0419826
2.744761687	52.01780421	2.500275701	98.05230568
2.758600516	52.71914221	2.500275701	96.42450342
2.758600516	51.67064179	2.51411453	98.05230568
2.772439346	51.55543662	2.512961294	95.94145293
2.772439346	50.75616062	2.52795336	96.31694912
2.785124939	50.53008047	2.52795336	94.61230537
2.800117005	50.0250752	2.541792189	95.88793026
2.81026548	49.29351623	2.541792189	94.1908794
2.82318172	49.19459059	2.555631018	95.46082235
2.82318172	48.27002953	2.555631018	93.2495215
2.83702055	48.54014072	2.564856905	91.77824154
2.83702055	47.73430805	2.569469848	93.77133056
2.848552908	47.57475403	2.57500538	90.8457864
2.850859379	47.02050314	2.583308677	93.56225746
2.864698209	46.70669228	2.589074856	91.85509536
2.875077331	45.70119885	2.58792162	89.77740328
2.878537038	46.31737225	2.597147507	92.93783088
2.888685513	45.21416731	2.60176045	90.88635074
2.899295282	45.09322257	2.60176045	89.07876486
2.901601754	44.34461346	2.615599279	89.67726332
2.91082764	43.75468424	2.615599279	87.99187261
2.924666469	43.41418983	2.629438109	89.07876486
2.924666469	42.69345496	2.629438109	87.30712901
2.937352063	42.45587881	2.643276938	88.28697571
2.944271478	41.7510532	2.642123702	86.33815707
2.956957071	41.51872123	2.647889881	85.094553
2.956957071	40.57959948	2.657115767	86.91824205
2.967336193	39.93933934	2.658038356	84.39467224
2.966182958	40.78391153	2.670954597	86.53108729
2.980021787	39.70600902	2.670954597	84.81012072
2.977715316	39.17778849	2.670954597	83.30912797
2.990170262	38.65659503	2.682486955	84.90482569
2.993860616	37.76113489	2.68364019	83.07700957
2.99847356	38.39860419	2.689406369	81.83470021
3.113797138	24.25174378	2.698632256	83.12338145
3.123945613	23.80525444	2.704398435	81.42473914
3.123023024	23.18643962	2.709011378	79.80532977
3.127635968	24.40787428	2.717084028	82.01756706
3.128789203	22.5862314	2.721696971	80.38636727
3.126482732	22.02612878	2.720543736	78.6777727
3.133402146	21.62423411	2.730922858	77.7394751
3.132248911	21.11153583	2.735535801	80.56599769
3.132248911	20.69166074	2.735535801	78.96366732
3.132248911	23.70980226	2.745684276	76.99690023
3.132248911	23.23825176	2.744761687	79.14011859
3.13801509	20.39362064	2.758600516	77.04847682
3.136861854	22.77607966	2.758600516	75.68485177
3.136861854	22.32309943	2.772439346	76.70528437
3.141474797	21.87912826	2.77128611	75.0121163
3.143781268	21.30087163	2.778205525	74.20029956
3.143781268	20.87723095	2.783971704	76.02347864
3.14608774	19.13668984	2.790891118	74.01420841
3.14608774	18.75609133	2.800117005	72.1385075
3.14608774	18.38306231	2.800117005	75.0121163
3.148394212	20.46201582	2.804729948	73.52024386
3.151853919	18.04764002	2.805883184	71.15897109
3.150700683	17.61974074	2.818568777	73.02957598
3.150700683	17.28859608	2.818568777	71.57713313
3.156466862	16.96367493	2.817415541	70.03623323
3.155313626	19.0089732	2.82318172	69.06596974
3.157620098	18.63091476	2.830101135	71.81718523
3.159926569	16.62629425	2.832407607	70.31034142
3.162233041	18.13850712	2.838173786	68.52850555
3.162233041	17.77776088	2.846246436	69.84109616
3.162233041	17.42418931	2.850859379	68.29944601
3.164539513	15.72391897	2.850859379	67.0158291
3.164539513	15.41119508	2.856625558	66.10585124
3.164539513	15.12155773	2.864698209	67.99522384
3.164539513	16.96367493	2.870464388	66.38309578
3.169152456	14.82081384	2.86700468	65.28104568
3.173765399	14.41301106	2.875077331	64.46653124
3.17607187	15.34254991	2.88084351	66.2720587
3.17607187	15.03741083	2.887762924	64.62861703
3.178378342	13.94621215	2.887762924	63.30791879
3.178378342	13.63075948	2.898142046	62.34383355
3.177225106	13.32987843	2.899295282	64.52051462
3.182991285	12.99931864	2.901601754	63.44938591
3.182991285	14.25304928	2.90275499	61.30884072
3.1899107	13.1525472	2.915440583	62.74519743
3.19313976	12.7194716	2.915440583	61.49729462
3.192217171	12.44564906	2.915440583	60.27421062
3.19798335	12.28008099	2.920053526	59.27357636
3.196830115	12.01571757	2.929279413	60.61149524
3.208362472	12.09644824	2.930202001	58.55035135
3.210668944	11.8691081	2.939658535	57.09839573
3.210668944	11.64604059	2.943118242	59.07545183
3.215281887	11.42716539	2.943118242	57.96519028
3.224507773	11.5812339	2.953266717	56.77432381
3.229120717	11.30034181	2.952344128	55.37259036
3.229120717	11.12514997	2.952344128	58.55035135
3.24180631	11.06941715	2.966182958	56.24456299
3.246419253	10.84926394	2.966182958	55.12594752
3.253338668	10.70493304	2.966182958	54.02957954
3.26371779	10.79491321	2.975408844	52.66033796
3.264871026	10.54485459	2.980021787	54.63595276
3.271790441	10.36111934	2.980021787	53.54933001
3.282169563	10.3697956	2.98463473	51.72834087
3.284476034	10.19764282	2.993860616	53.54933001
3.294624509	10.06872067	2.993860616	52.48431847
3.30754075	9.972543296	2.995013852	51.12570026
3.30754075	9.774205171	3.007699446	53.60912697
3.317689225	9.575536021	3.007699446	52.48431847
3.319073108	9.828900024	3.006776857	51.24566408
3.328298994	9.601218611	3.109184195	31.14837854
3.32945223	9.394525269	3.109184195	30.44382601
3.339831352	9.261791486	3.109184195	29.83834643
3.344444295	9.032113784	3.109184195	29.3102592
3.35136371	9.16155598	3.118410081	28.83975763
3.353670181	8.867311408	3.118410081	28.18742434
3.360589596	9.009461632	3.118410081	30.99233688
3.363818656	8.718642237	3.120716553	30.17322178
3.37327519	8.496742206	3.120716553	29.57312408
3.372121954	8.683683003	3.123945613	27.39959754
3.376734897	8.355684675	3.118410081	27.01699535
3.38134784	8.212384907	3.127635968	26.56847631
3.383654312	8.454176724	3.127635968	26.04007131
3.387114019	8.08055598	3.128558556	25.38581799
3.39518667	7.866990108	3.129942439	28.7915182
3.39518667	7.689044802	3.129942439	28.21890041
3.397493141	8.06703987	3.132248911	27.65767108
3.400722201	7.499205617	3.134555382	27.01699535
3.404412556	7.906599196	3.136861854	26.39116055
3.404412556	7.749349433	3.139168325	25.6936527
3.409025499	7.320586661	3.140321561	25.09847246
3.411331971	7.544537218	3.147240976	24.55815697
3.409025499	7.444170056	3.14608774	23.97589704
3.414561031	7.151009037	3.144934504	23.43358056
3.412485206	6.950365567	3.148394212	23.04455111
3.418251385	6.795049243	3.159926569	21.64234195
3.4251708	6.91554685	3.164539513	22.28576023
3.42839986	6.687837757	3.164539513	20.98234461
3.427477272	6.511080872	3.164539513	20.50774
3.432090215	6.328392548	3.164539513	20.22363119
3.436703158	6.46762647	3.169152456	19.83247903
3.442469337	6.223332584	3.169152456	21.87912826
3.441316101	6.075780909	3.169152456	21.44398698
3.441316101	6.338995601	3.172612163	19.29754303
3.44708228	5.968250075	3.179531578	18.94543487
3.451695223	5.810511605	3.178378342	18.50657362
3.450541987	6.171458475	3.178378342	18.13850712
3.457461402	5.928418479	3.178378342	17.77776088
3.464380817	5.762078534	3.178378342	17.42418931
3.464380817	5.619188148	3.182991285	17.03957329
3.46899376	5.513581363	3.187604228	16.65415116
3.478219646	5.594158932	3.187604228	18.88210892
3.482832589	5.458477797	3.187604228	18.50657362
3.482832589	5.379854562	3.192217171	18.05771384
3.495518183	5.361872162	3.192217171	17.69857445
3.502437598	5.28169229	3.192217171	17.34657778
3.513969955	5.237667151	3.19798335	16.99209712
3.52088937	5.172316551	3.197752703	16.37218693
3.533574964	5.220160019	3.201443058	17.89720531
3.533574964	5.116339286	3.206056001	17.46312519
3.547413793	5.150714719	3.206056001	15.91814379
3.547413793	5.076524465	3.210668944	17.11581123
3.560099387	5.056733394	3.210668944	16.7754048
3.565865566	4.997821918	3.210668944	16.44176851
3.579704395	4.992247222	3.210668944	16.18686792
3.59469646	4.964466878	3.21182218	15.68010852
3.606228818	4.947872929	3.21989483	16.96367493
3.613148233	4.877965204	3.224507773	16.58922416
3.625833826	4.903893064	3.224507773	16.25929071
3.625833826	4.811729504	3.224507773	15.93591912
3.639672656	4.871164897	3.224507773	15.61897887
3.639672656	4.779616429	3.224507773	15.32543644
3.653511485	4.849467557	3.229120717	15.13844352
3.653511485	4.758326868	3.236040131	16.35027504
3.667350315	4.849467557	3.238346603	16.04298866
3.667350315	4.753019311	3.238346603	15.72391897
3.681189144	4.827866861	3.238346603	15.41119508
3.681189144	4.742421951	3.242959546	14.97043059
3.693874738	4.760982868	3.248725725	14.65223738
3.700794152	4.705516917	3.252185432	15.68886083
3.713479746	4.700268265	3.252185432	15.37683418
3.713479746	4.632566186	3.256798375	15.07101325
3.727318576	4.658489269	3.261411319	14.54227209
3.741157405	4.658489269	3.266024262	15.37683418
3.753842999	4.658489269	3.271790441	15.0122582
3.768835064	4.658489269	3.275250148	14.67269238
3.782673893	4.648102674	3.274096912	14.34881204
3.796512723	4.642918064	3.284476034	14.97043059
3.810351552	4.642918064	3.28562927	14.15792564
3.824190381	4.627398906	3.286782506	14.63997806
3.838029211	4.627398906	3.289088977	14.39693442
3.853021276	4.611931622	3.29370192	13.63075948
3.86570687	4.565839279	3.298314864	14.06343684
3.879545699	4.565839279	3.302927807	14.34881204
3.893384528	4.576042049	3.303850395	13.36563056
3.893384528	4.495054004	3.308693986	13.80683159
3.907223358	4.525255173	3.312153693	14.06343684
3.907223358	4.440207719	3.313306929	13.10858424
3.921062187	4.495054004	3.317919872	13.41943863
3.921062187	4.410574149	3.322532815	13.76068165
3.933978428	4.415499307	3.321379579	14.06343684
3.94758661	4.386030639	3.326915111	12.94286095
3.954506025	4.327682004	3.325992522	12.69819611
3.967191619	4.327682004	3.330605466	13.32987843
3.981030448	4.313216537	3.335218409	13.53978895
3.996022513	4.284430495	3.339831352	13.04291516
4.007554871	4.277264053	3.339831352	12.74789438
4.014474286	4.23097347	3.338678116	12.46650141
4.027159879	4.220362372	3.345366884	12.23493716
4.040998709	4.213303094	3.349057238	13.24091595
4.05391495	4.185183867	3.35136371	12.95586785
4.064986013	4.143356506	3.349057238	12.76212958
4.077902254	4.175852556	3.35459277	11.97555451
4.077902254	4.101947174	3.367509011	11.94885374
4.092663672	4.107444416	3.367509011	11.71120992
4.105579913	4.101947174	3.37327519	11.46548929
4.119418742	4.129507155	3.376734897	11.22492429
4.119418742	4.051897371	3.38134784	11.76360786
4.133257572	4.111113336	3.387114019	11.52321627
4.133257572	4.038353726	3.387114019	11.06941715
4.147096401	4.088236235	3.392111374	11.25000737
4.160935231	4.129507155	3.391726962	10.79491321
4.160935231	4.056422006	3.388267255	10.59794632
4.17477406	4.111113336	3.399799613	11.50394172
4.17477406	4.038353726	3.399799613	10.45112517
4.188612889	4.101947174	3.404412556	11.25000737
4.188612889	4.020365927	3.404412556	11.0262625
4.203604955	4.122599848	3.404412556	10.80696757
4.200145247	4.047377784	3.404412556	10.18626812
4.217213137	4.148909243	3.410178735	9.978109766
4.211677605	4.088236235	3.413638442	10.59794632
4.228976142	4.171194706	3.413638442	10.35822887
4.242814971	4.199219944	3.413638442	9.774205171
4.257807036	4.213303094	3.415944914	11.08796366
4.271645866	4.213303094	3.418251385	10.87957694
4.285484695	4.213303094	3.423786917	10.17036484
4.299323525	4.213303094	3.422864328	9.905987387
4.313162354	4.213303094	3.422864328	9.558452473
4.327001183	4.213303094	3.422864328	10.68702721
4.340840013	4.213303094	3.427477272	10.45112517
4.354678842	4.199219944	3.428630507	9.308423184
4.368517672	4.194536029	3.432090215	9.130933077
4.382356501	4.185183867	3.436703158	10.2147287
4.397117919	4.162823664	3.436703158	9.972543296
4.41003416	4.185183867	3.436703158	9.774205171
4.41003416	4.115704096	3.436703158	9.579811677
4.423872989	4.185183867	3.441316101	9.331827004
4.423872989	4.115704096	3.440393512	8.943342526
4.437711819	4.185183867	3.448235516	9.730668509
4.437711819	4.111113336	3.450541987	9.515876826
4.451550648	4.185183867	3.451695223	9.176905924
4.451550648	4.101947174	3.451695223	8.815507531
4.465389478	4.185183867	3.45515493	9.285078061
4.465389478	4.115704096	3.456692578	8.959326706
4.479228307	4.185183867	3.45515493	8.64500379
4.479228307	4.115704096	3.465303405	8.510978272
4.493067136	4.185183867	3.466687288	9.130933077
4.493067136	4.115704096	3.46899376	8.939350939
4.506905966	4.14798327	3.46899376	8.761561376
4.506905966	4.074571126	3.474529292	8.280489801
4.520744795	4.120299981	3.478219646	8.553829741
4.520744795	4.027101943	3.480526118	8.771345154
4.534583625	4.101947174	3.487445532	8.383707586
4.534583625	4.033849246	3.486292297	8.175804969
4.548422454	4.101947174	3.492058475	8.568161455
4.548422454	4.033849246	3.497594007	8.077850948
4.562261284	4.129507155	3.501284362	8.355684675
4.563414519	4.033849246	3.510510248	8.162129538
4.576100113	4.120299981	3.510510248	7.977508403
4.575177524	4.020365927	3.510510248	7.845070863
4.589938942	4.101947174	3.52088937	7.723446892
4.589938942	4.033849246	3.524349077	8.121240339
4.603777772	4.101947174	3.524349077	7.986416652
4.603777772	4.020365927	3.519736134	7.853831223
4.617616601	4.101947174	3.533574964	7.677040307
4.617616601	4.020365927	3.538187907	7.977508403
4.631455431	4.101947174	3.543723439	7.554648062
4.631455431	4.020365927	3.548336382	7.801415419
4.64529426	4.101947174	3.555717091	7.534439906
4.64529426	4.020365927	3.558946151	7.749349433
4.659133089	4.101947174	3.562405858	7.413079981
4.659133089	4.020365927	3.570478509	7.629209455
4.672971919	4.101947174	3.576244688	7.494185616
4.672971919	4.020365927	3.575091452	7.320586661
4.686810748	4.092801448	3.588930281	7.494185616
4.686810748	4.01588151	3.588930281	7.345138108
4.700649578	4.074571126	3.588930281	7.223198779
4.700649578	4.006927678	3.602769111	7.411011932
4.714488407	4.074571126	3.602769111	7.263618617
4.714488407	4.006927678	3.602769111	7.127106475
4.728327237	4.074571126	3.61660794	7.361551466
4.728327237	4.006927678	3.61660794	7.215141842
4.742166066	4.074571126	3.615454704	7.055877094
4.742166066	4.006927678	3.622374119	6.96201072
4.756004895	4.074571126	3.63044677	7.263618617
4.756004895	4.006927678	3.63044677	7.151009037
4.769843725	4.074571126	3.635059713	6.954245119
4.769843725	4.00245825	3.644285599	7.231264712
4.783682554	4.074571126	3.644285599	7.095360628
4.783682554	3.993534346	3.648898542	6.943387827
4.797521384	4.074571126	3.658124428	7.183003864
4.798674619	3.980185782	3.658124428	6.857902843
4.811360213	4.074571126	3.663890607	7.032292515
4.810206977	3.980185782	3.673116494	6.840703518
4.815973156	3.927236219	3.676576201	7.071644073
4.825199042	4.065486438	3.676576201	6.938739893
4.825199042	3.984630338	3.686724676	6.814414962
4.829811986	3.927236219	3.69041503	6.993159937
4.839037872	4.011402096	3.699640917	6.823547329
4.844804051	3.94700925	3.713479746	6.91554685
4.857489644	3.993534346	3.71232651	6.755351765
4.857489644	3.927236219	3.718092689	6.665483365
4.871328474	3.984630338	3.727318576	6.884743341
4.871328474	3.922855681	3.727318576	6.747816676
4.884014067	3.953622359	3.733084754	6.659906452
4.890933482	3.904292842	3.741157405	6.869393076
4.903619076	3.905382338	3.745770348	6.732771705
4.903619076	3.831984747	3.745770348	6.620998494
4.913998198	3.741130569	3.754996234	6.869393076
4.915151434	3.862038731	3.759609177	6.732771705
4.917457905	3.810660912	3.760762413	6.576810511
4.926683791	3.734872889	3.768835064	6.838795147
4.931296735	3.80216464	3.774601243	6.699043051
4.941675857	3.722388912	3.773448007	6.521990015
4.945135564	3.759966587	3.787286836	6.778007553
4.955284039	3.667953272	3.787286836	6.643203694
4.967047044	3.636161688	3.787286836	6.511080872
4.982039109	3.636161688	3.801125666	6.762895267
4.995877939	3.636161688	3.801125666	6.628391968
5.009716768	3.636161688	3.801125666	6.496563728
5.023555597	3.636161688	3.814964495	6.732771705
5.038547663	3.624007658	3.814964495	6.598867516
5.05008002	3.611894253	3.814964495	6.46762647
5.056999435	3.572804618	3.828803325	6.732771705
5.069685029	3.611894253	3.828803325	6.598867516
5.069685029	3.551931873	3.828803325	6.46762647
5.083523858	3.611894253	3.842642154	6.687837757
5.083523858	3.551931873	3.842642154	6.554827233
5.097362688	3.611894253	3.842642154	6.431636087
5.097362688	3.551931873	3.856480983	6.672926515
5.111201517	3.611894253	3.856480983	6.540212552
5.111201517	3.551931873	3.856480983	6.392277941
5.125040346	3.611894253	3.870319813	6.598867516
5.125040346	3.551931873	3.870319813	6.46762647
5.138879176	3.611894253	3.870319813	6.346074171
5.138879176	3.551931873	3.884158642	6.554827233
5.152718005	3.611894253	3.884158642	6.424462079
5.152718005	3.551931873	3.884158642	6.31780723
5.166556835	3.611894253	3.897997472	6.496563728
5.166556835	3.551931873	3.896844236	6.349616419
5.181318253	3.592596967	3.903763651	6.280897856
5.175782721	3.551931873	3.911836301	6.438818106
5.194234494	3.602232688	3.916449244	6.27564272
5.208073323	3.62805448	3.92567513	6.410138061
5.222834741	3.695070851	3.926828366	6.192156029
5.217299209	3.636161688	3.931825721	6.310760189
5.232060627	3.775103661	3.93951396	6.137116177
5.235750982	3.709946664	3.944126903	6.381585763
5.244976868	3.810660912	3.944126903	6.254666108
5.249589811	3.739043512	3.949662435	6.064941213
5.259968933	3.804286931	3.957965732	6.324862139
5.263428641	3.753677401	3.957965732	6.199070627
5.273807763	3.829847005	3.962578676	6.056824135
5.278805118	3.776789316	3.971804562	6.27564272
5.286493356	3.887986826	3.976417505	6.130270684
5.291106299	3.814916165	3.976417505	6.008349289
5.300332186	3.887986826	3.985643391	6.254666108
5.304945129	3.823440931	3.990256334	6.130270684
5.314171015	3.887986826	3.990256334	6.008349289
5.318783958	3.823440931	3.999482221	6.254666108
5.328932433	3.877586732	4.004095164	6.130270684
5.341848674	3.914109259	4.005017752	5.976248451
5.341848674	3.836263812	4.01332105	6.22680632
5.355687503	3.914109259	4.017933993	6.096157584
5.355687503	3.840547655	4.019087229	5.948300937
5.370448921	3.893197328	4.027159879	6.185249143
5.36491339	3.849129697	4.032926058	6.058852385
5.383365162	3.914109259	4.031772823	5.915200443
5.398357227	3.901026177	4.045611652	6.102964984
5.409889585	3.901026177	4.045611652	5.981586655
5.415655764	3.840547655	4.045611652	5.875722896
5.42488165	3.914109259	4.059450481	6.035231662
5.429494594	3.836263812	4.058527893	5.888852717
5.43872048	3.914109259	4.068676368	5.83650882
5.443333423	3.836263812	4.073289311	5.981586655
5.452559309	3.896674875	4.082515197	5.849551013
5.457172252	3.823440931	4.08712814	5.968250075
5.466398139	3.887986826	4.097276615	5.818298587
5.471011082	3.823440931	4.10096697	5.968250075
5.480236968	3.887986826	4.10903962	5.829998632
5.484849911	3.827710455	4.114805799	5.968250075
5.494075798	3.914109259	4.114805799	5.752440473
5.498688741	3.836263812	4.124031685	5.849551013
5.507914627	3.914109259	4.128644629	5.968250075
5.51252757	3.836263812	4.128644629	5.752440473
5.521753456	3.914109259	4.139023751	5.85935178
5.526366399	3.836263812	4.142483458	5.948300937
5.535592286	3.914109259	4.143636694	5.757257486
5.540205229	3.836263812	4.156322287	5.928418479
5.549431115	3.914109259	4.156322287	5.810511605
5.554044058	3.836263812	4.156322287	5.714049173
5.563269945	3.905382338	4.170161117	5.928418479
5.565576416	3.829847005	4.170161117	5.810511605
5.599020254	3.874991059	4.170161117	5.714049173
5.604786433	3.823440931	4.183999946	5.915200443
5.614012319	3.887986826	4.183999946	5.797556454
5.618625262	3.823440931	4.183999946	5.707675579
5.627851149	3.887986826	4.197838776	5.875722896
5.632464092	3.823440931	4.196916187	5.733212688
5.641689978	3.887986826	4.211677605	5.849551013
5.646302921	3.823440931	4.211677605	5.733212688
5.655528807	3.887986826	4.226439023	5.833903872
5.66014175	3.823440931	4.225516434	5.707675579
5.669367637	3.887986826	4.239355264	5.928418479
5.67398058	3.823440931	4.239355264	5.810511605
5.683206466	3.887986826	4.239355264	5.714049173
5.687819409	3.823440931	4.253194093	5.928418479
5.697045296	3.887986826	4.253194093	5.810511605
5.701658239	3.823440931	4.253194093	5.714049173
5.710884125	3.887986826	4.267032923	5.888852717
5.715497068	3.823440931	4.267032923	5.733212688
5.724722954	3.887986826	4.280871752	5.888852717
5.729335898	3.823440931	4.280871752	5.733212688
5.738561784	3.887986826	4.294710582	5.849551013
5.743174727	3.823440931	4.294710582	5.733212688
5.752400613	3.887986826	4.308549411	5.83650882
5.757013556	3.823440931	4.308549411	5.704491449
5.767392678	3.884733803	4.32238824	5.810511605
5.770852386	3.836263812	4.323541476	5.675914093
5.780078272	3.914109259	4.33622707	5.810511605
5.784691215	3.849129697	4.335073834	5.675914093
5.793917102	3.914109259	4.340840013	5.600405765
5.798530045	3.836263812	4.350065899	5.810511605
5.807755931	3.914109259	4.350065899	5.694949712
5.812368874	3.836263812	4.354678842	5.594158932
5.82159476	3.905382338	4.363904729	5.810511605
5.827360939	3.84269137	4.363904729	5.694949712
5.840046533	3.887986826	4.368517672	5.581686163
5.840046533	3.823440931	4.377743558	5.784630188
5.853885362	3.887986826	4.377743558	5.669583036
5.853885362	3.823440931	4.382356501	5.563029132
5.867724192	3.914109259	4.391582387	5.771732743
5.867724192	3.836263812	4.391582387	5.6569421
5.881563021	3.905382338	4.397348566	5.525901947
5.881563021	3.831984747	4.405421217	5.746024057
5.895401851	3.887986826	4.405421217	5.631744719
5.895401851	3.797923611	4.41003416	5.507431377
5.905780973	3.753677401	4.419260046	5.707675579
5.90924068	3.870668797	4.419260046	5.594158932
5.90924068	3.797923611	4.423872989	5.470675246
5.919389155	3.744890209	4.433098876	5.694949712
5.923079509	3.844836281	4.433098876	5.581686163
5.932305396	3.754934396	4.437711819	5.470675246
5.936918339	3.810660912	4.446937705	5.694949712
5.938071575	3.682103452	4.446937705	5.581686163
5.950757168	3.734872889	4.451550648	5.470675246
5.949603932	3.654469204	4.460776535	5.694949712
5.955370111	3.617945886	4.460776535	5.581686163
5.964595998	3.67697028	4.465389478	5.470675246
5.970362177	3.611894253	4.474615364	5.669583036
5.98304777	3.636161688	4.474615364	5.55682399
5.98304777	3.571807902	4.479228307	5.452389274
5.9968866	3.636161688	4.488454193	5.6569421
5.9968866	3.563844179	4.488454193	5.55682399
6.010725429	3.611894253	4.493067136	5.446307543
6.010725429	3.551931873	4.502293023	5.6569421
6.024564258	3.611894253	4.502293023	5.55682399
6.024564258	3.544012465	4.506905966	5.434164423
6.038403088	3.603841152	4.516131852	5.644329349
6.037249852	3.522325019	4.516131852	5.532072559
6.043016031	3.481289561	4.521898031	5.434164423
6.052241917	3.563844179	4.529970682	5.619188148
6.057777449	3.488290103	4.535736861	5.516658931
6.07069369	3.540059385	4.534583625	5.385862087
6.07069369	3.469653198	4.548422454	5.581686163
6.084532519	3.540059385	4.548422454	5.470675246
6.084532519	3.469653198	4.548422454	5.361872162
6.098371349	3.540059385	4.562261284	5.569241203
6.098371349	3.469653198	4.562261284	5.458477797
6.113132767	3.530589973	4.562261284	5.355891395
6.111056942	3.440732171	4.576100113	5.544434462
6.121436064	3.540059385	4.576100113	5.434164423
6.121436064	3.446497027	4.576100113	5.343949868
0.00000000	0.00000000	4.589938942	5.519738217
0.00000000	0.00000000	4.589938942	5.409959348
0.00000000	0.00000000	4.589938942	5.32014663
0.00000000	0.00000000	4.603777772	5.507431377
0.00000000	0.00000000	4.603777772	5.397897271
0.00000000	0.00000000	4.603777772	5.3082848
0.00000000	0.00000000	4.617616601	5.470675246
0.00000000	0.00000000	4.617616601	5.326087481
0.00000000	0.00000000	4.631455431	5.434164423
0.00000000	0.00000000	4.631455431	5.326087481
0.00000000	0.00000000	4.64529426	5.434164423
0.00000000	0.00000000	4.64529426	5.326087481
0.00000000	0.00000000	4.659133089	5.434164423
0.00000000	0.00000000	4.659133089	5.326087481
0.00000000	0.00000000	4.672971919	5.409959348
0.00000000	0.00000000	4.671818683	5.290541625
0.00000000	0.00000000	4.686810748	5.397897271
0.00000000	0.00000000	4.687733337	5.262275821
0.00000000	0.00000000	4.700649578	5.397897271
0.00000000	0.00000000	4.699726989	5.262275821
0.00000000	0.00000000	4.709875464	5.202711404
0.00000000	0.00000000	4.714488407	5.397897271
0.00000000	0.00000000	4.714488407	5.290541625
0.00000000	0.00000000	4.723714293	5.19690817
0.00000000	0.00000000	4.728327237	5.397897271
0.00000000	0.00000000	4.728327237	5.290541625
0.00000000	0.00000000	4.738706359	5.198358371
0.00000000	0.00000000	4.742166066	5.373853737
0.00000000	0.00000000	4.742166066	5.272857757
0.00000000	0.00000000	4.751391952	5.162224445
0.00000000	0.00000000	4.756004895	5.361872162
0.00000000	0.00000000	4.756004895	5.255232998
0.00000000	0.00000000	4.766384017	5.133498229
0.00000000	0.00000000	4.769843725	5.3499173
0.00000000	0.00000000	4.769843725	5.2435159
0.00000000	0.00000000	4.779069611	5.116339286
0.00000000	0.00000000	4.783682554	5.326087481
0.00000000	0.00000000	4.783682554	5.220160019
0.00000000	0.00000000	4.79290844	5.099237697
0.00000000	0.00000000	4.797521384	5.302363806
0.00000000	0.00000000	4.797521384	5.202711404
0.00000000	0.00000000	4.80674727	5.082193271
0.00000000	0.00000000	4.811360213	5.290541625
0.00000000	0.00000000	4.811360213	5.185321113
0.00000000	0.00000000	4.820586099	5.082193271
0.00000000	0.00000000	4.825199042	5.290541625
0.00000000	0.00000000	4.825199042	5.185321113
0.00000000	0.00000000	4.835578165	5.065205817
0.00000000	0.00000000	4.839037872	5.290541625
0.00000000	0.00000000	4.839037872	5.185321113
0.00000000	0.00000000	4.848263758	5.068033111
0.00000000	0.00000000	4.852876701	5.266976279
0.00000000	0.00000000	4.852876701	5.176647777
0.00000000	0.00000000	4.862102588	5.065205817
0.00000000	0.00000000	4.866715531	5.255232998
0.00000000	0.00000000	4.866715531	5.167988949
0.00000000	0.00000000	4.875941417	5.053912404
0.00000000	0.00000000	4.88055436	5.255232998
0.00000000	0.00000000	4.88055436	5.167988949
0.00000000	0.00000000	4.889780246	5.031401062
0.00000000	0.00000000	4.89439319	5.231824926
0.00000000	0.00000000	4.89439319	5.142099269
0.00000000	0.00000000	4.899928721	4.97112003
0.00000000	0.00000000	4.908232019	5.185321113
0.00000000	0.00000000	4.908232019	5.082193271
0.00000000	0.00000000	4.912844962	4.957822631
0.00000000	0.00000000	4.922070848	5.070861983
0.00000000	0.00000000	4.926683791	4.931334447
0.00000000	0.00000000	4.935909678	5.025788912
0.00000000	0.00000000	4.936832266	4.875516
0.00000000	0.00000000	4.949748507	5.003402839
0.00000000	0.00000000	4.949748507	4.903893064
0.00000000	0.00000000	4.949748507	4.817102621
0.00000000	0.00000000	4.963587337	4.970010552
0.00000000	0.00000000	4.963587337	4.871164897
0.00000000	0.00000000	4.963587337	4.760982868
0.00000000	0.00000000	4.977426166	4.936841123
0.00000000	0.00000000	4.977426166	4.838655155
0.00000000	0.00000000	4.977426166	4.747717674
0.00000000	0.00000000	4.991264995	4.947872929
0.00000000	0.00000000	4.991264995	4.849467557
0.00000000	0.00000000	4.992187584	4.727625331
0.00000000	0.00000000	5.005103825	4.925833913
0.00000000	0.00000000	5.005103825	4.827866861
0.00000000	0.00000000	5.003950589	4.721298063
0.00000000	0.00000000	5.018942654	4.914851245
0.00000000	0.00000000	5.018942654	4.817102621
0.00000000	0.00000000	5.018942654	4.721298063
0.00000000	0.00000000	5.032781484	4.914851245
0.00000000	0.00000000	5.032781484	4.817102621
0.00000000	0.00000000	5.032781484	4.721298063
0.00000000	0.00000000	5.046620313	4.914851245
0.00000000	0.00000000	5.046620313	4.817102621
0.00000000	0.00000000	5.046620313	4.721298063
0.00000000	0.00000000	5.060459143	4.914851245
0.00000000	0.00000000	5.060459143	4.817102621
0.00000000	0.00000000	5.060459143	4.710771429
0.00000000	0.00000000	5.074297972	4.882049944
0.00000000	0.00000000	5.074297972	4.801001244
0.00000000	0.00000000	5.074297972	4.705516917
0.00000000	0.00000000	5.088136801	4.882049944
0.00000000	0.00000000	5.088136801	4.801001244
0.00000000	0.00000000	5.088136801	4.705516917
0.00000000	0.00000000	5.101975631	4.882049944
0.00000000	0.00000000	5.101975631	4.801001244
0.00000000	0.00000000	5.101975631	4.705516917
0.00000000	0.00000000	5.11581446	4.882049944
0.00000000	0.00000000	5.11581446	4.801001244
0.00000000	0.00000000	5.11581446	4.705516917
0.00000000	0.00000000	5.12965329	4.882049944
0.00000000	0.00000000	5.12965329	4.801001244
0.00000000	0.00000000	5.12965329	4.68978852
0.00000000	0.00000000	5.143492119	4.882049944
0.00000000	0.00000000	5.143492119	4.801001244
0.00000000	0.00000000	5.143492119	4.68978852
0.00000000	0.00000000	5.157330948	4.882049944
0.00000000	0.00000000	5.157330948	4.801001244
0.00000000	0.00000000	5.157330948	4.68978852
0.00000000	0.00000000	5.171169778	4.882049944
0.00000000	0.00000000	5.171169778	4.801001244
0.00000000	0.00000000	5.171169778	4.68978852
0.00000000	0.00000000	5.185008607	4.882049944
0.00000000	0.00000000	5.185008607	4.801001244
0.00000000	0.00000000	5.185008607	4.68978852
0.00000000	0.00000000	5.198847437	4.882049944
0.00000000	0.00000000	5.198847437	4.801001244
0.00000000	0.00000000	5.198847437	4.68978852
0.00000000	0.00000000	5.212686266	4.882049944
0.00000000	0.00000000	5.212686266	4.795646087
0.00000000	0.00000000	5.212686266	4.695025469
0.00000000	0.00000000	5.227447684	4.901704361
0.00000000	0.00000000	5.226525095	4.774285126
0.00000000	0.00000000	5.224218624	4.705516917
0.00000000	0.00000000	5.241286514	4.934637715
0.00000000	0.00000000	5.240363925	4.806362381
0.00000000	0.00000000	5.238057453	4.737132135
0.00000000	0.00000000	5.254202754	4.981116479
0.00000000	0.00000000	5.254202754	4.882049944
0.00000000	0.00000000	5.254202754	4.784953686
0.00000000	0.00000000	5.268041584	4.981116479
0.00000000	0.00000000	5.268041584	4.882049944
0.00000000	0.00000000	5.268041584	4.790296903
0.00000000	0.00000000	5.281880413	4.981116479
0.00000000	0.00000000	5.281880413	4.882049944
0.00000000	0.00000000	5.281880413	4.801001244
0.00000000	0.00000000	5.295719243	4.981116479
0.00000000	0.00000000	5.295719243	4.882049944
0.00000000	0.00000000	5.295719243	4.801001244
0.00000000	0.00000000	5.309558072	4.981116479
0.00000000	0.00000000	5.309558072	4.882049944
0.00000000	0.00000000	5.309558072	4.801001244
0.00000000	0.00000000	5.323396901	4.981116479
0.00000000	0.00000000	5.323396901	4.882049944
0.00000000	0.00000000	5.323396901	4.801001244
0.00000000	0.00000000	5.337235731	4.981116479
0.00000000	0.00000000	5.337235731	4.882049944
0.00000000	0.00000000	5.337235731	4.801001244
0.00000000	0.00000000	5.35107456	4.981116479
0.00000000	0.00000000	5.35107456	4.882049944
0.00000000	0.00000000	5.35107456	4.801001244
0.00000000	0.00000000	5.36491339	4.981116479
0.00000000	0.00000000	5.36491339	4.882049944
0.00000000	0.00000000	5.36491339	4.801001244
0.00000000	0.00000000	5.378752219	4.981116479
0.00000000	0.00000000	5.378752219	4.865731478
0.00000000	0.00000000	5.378752219	4.801001244
0.00000000	0.00000000	5.392591048	4.981116479
0.00000000	0.00000000	5.392591048	4.882049944
0.00000000	0.00000000	5.392591048	4.801001244
0.00000000	0.00000000	5.406429878	4.981116479
0.00000000	0.00000000	5.406429878	4.882049944
0.00000000	0.00000000	5.406429878	4.790296903
0.00000000	0.00000000	5.420268707	4.970010552
0.00000000	0.00000000	5.420268707	4.871164897
0.00000000	0.00000000	5.420268707	4.774285126
0.00000000	0.00000000	5.434107537	4.947872929
0.00000000	0.00000000	5.434107537	4.849467557
0.00000000	0.00000000	5.434107537	4.753019311
0.00000000	0.00000000	5.447946366	4.914851245
0.00000000	0.00000000	5.447946366	4.817102621
0.00000000	0.00000000	5.447946366	4.737132135
0.00000000	0.00000000	5.461785196	4.914851245
0.00000000	0.00000000	5.461785196	4.817102621
0.00000000	0.00000000	5.461785196	4.737132135
0.00000000	0.00000000	5.475624025	4.914851245
0.00000000	0.00000000	5.475624025	4.817102621
0.00000000	0.00000000	5.475624025	4.721298063
0.00000000	0.00000000	5.489462854	4.892959315
0.00000000	0.00000000	5.489462854	4.795646087
0.00000000	0.00000000	5.489462854	4.710771429
0.00000000	0.00000000	5.503301684	4.882049944
0.00000000	0.00000000	5.503301684	4.784953686
0.00000000	0.00000000	5.503301684	4.705516917
0.00000000	0.00000000	5.517140513	4.882049944
0.00000000	0.00000000	5.517140513	4.784953686
0.00000000	0.00000000	5.517140513	4.705516917
0.00000000	0.00000000	5.530979343	4.882049944
0.00000000	0.00000000	5.530979343	4.784953686
0.00000000	0.00000000	5.530979343	4.705516917
0.00000000	0.00000000	5.540205229	4.898423139
0.00000000	0.00000000	5.544818172	4.774285126
0.00000000	0.00000000	5.544818172	4.700268265
0.00000000	0.00000000	5.558657001	4.860304119
0.00000000	0.00000000	5.55635053	4.737132135
0.00000000	0.00000000	5.571342595	4.865731478
0.00000000	0.00000000	5.577108774	4.801001244
0.00000000	0.00000000	5.577108774	4.695025469
0.00000000	0.00000000	5.58633466	4.871164897
0.00000000	0.00000000	5.592100839	4.78896054
0.00000000	0.00000000	5.590947603	4.695025469
0.00000000	0.00000000	5.604786433	4.849467557
0.00000000	0.00000000	5.604786433	4.721298063
0.00000000	0.00000000	5.618625262	4.849467557
0.00000000	0.00000000	5.618625262	4.721298063
0.00000000	0.00000000	5.632464092	4.849467557
0.00000000	0.00000000	5.632464092	4.721298063
0.00000000	0.00000000	5.646302921	4.849467557
0.00000000	0.00000000	5.646302921	4.721298063
0.00000000	0.00000000	5.66014175	4.849467557
0.00000000	0.00000000	5.66014175	4.753019311
0.00000000	0.00000000	5.66014175	4.674112696
0.00000000	0.00000000	5.67398058	4.849467557
0.00000000	0.00000000	5.67398058	4.753019311
0.00000000	0.00000000	5.67398058	4.674112696
0.00000000	0.00000000	5.687819409	4.849467557
0.00000000	0.00000000	5.687819409	4.753019311
0.00000000	0.00000000	5.687819409	4.674112696
0.00000000	0.00000000	5.701658239	4.849467557
0.00000000	0.00000000	5.701658239	4.753019311
0.00000000	0.00000000	5.701658239	4.674112696
0.00000000	0.00000000	5.715497068	4.838655155
0.00000000	0.00000000	5.715497068	4.742421951
0.00000000	0.00000000	5.715497068	4.663691266
0.00000000	0.00000000	5.729335898	4.817102621
0.00000000	0.00000000	5.729335898	4.721298063
0.00000000	0.00000000	5.729335898	4.642918064
0.00000000	0.00000000	5.743174727	4.817102621
0.00000000	0.00000000	5.744327963	4.705516917
0.00000000	0.00000000	5.740868255	4.642918064
0.00000000	0.00000000	5.757013556	4.817102621
0.00000000	0.00000000	5.757013556	4.68978852
0.00000000	0.00000000	5.771774974	4.772154269
0.00000000	0.00000000	5.770852386	4.668899073
0.00000000	0.00000000	5.785613804	4.804217208
0.00000000	0.00000000	5.784691215	4.67933214
0.00000000	0.00000000	5.798530045	4.817102621
0.00000000	0.00000000	5.798530045	4.68978852
0.00000000	0.00000000	5.812368874	4.768959768
0.00000000	0.00000000	5.812368874	4.674112696
0.00000000	0.00000000	5.826207703	4.753019311
0.00000000	0.00000000	5.826207703	4.658489269
0.00000000	0.00000000	5.840046533	4.753019311
0.00000000	0.00000000	5.840046533	4.658489269
0.00000000	0.00000000	5.853885362	4.674112696
0.00000000	0.00000000	5.867724192	4.753019311
0.00000000	0.00000000	5.867724192	4.658489269
0.00000000	0.00000000	5.881563021	4.753019311
0.00000000	0.00000000	5.882716257	4.642918064
0.00000000	0.00000000	5.895401851	4.721298063
0.00000000	0.00000000	5.895401851	4.627398906
0.00000000	0.00000000	5.90924068	4.721298063
0.00000000	0.00000000	5.90924068	4.627398906
0.00000000	0.00000000	5.923079509	4.68978852
0.00000000	0.00000000	5.923079509	4.601648832
0.00000000	0.00000000	5.936918339	4.637739237
0.00000000	0.00000000	5.936918339	4.550577761
0.00000000	0.00000000	5.950757168	4.627398906
0.00000000	0.00000000	5.94983458	4.511136125
0.00000000	0.00000000	5.960905643	4.469042745
0.00000000	0.00000000	5.964595998	4.586267619
0.00000000	0.00000000	5.973821884	4.469042745
0.00000000	0.00000000	5.978434827	4.550577761
0.00000000	0.00000000	5.979588063	4.404425425
0.00000000	0.00000000	5.992273656	4.535367255
0.00000000	0.00000000	5.992273656	4.415499307
0.00000000	0.00000000	6.006112486	4.535367255
0.00000000	0.00000000	6.005189897	4.421416757
0.00000000	0.00000000	6.015338372	4.371370139
0.00000000	0.00000000	6.019951315	4.535367255
0.00000000	0.00000000	6.019951315	4.445165968
0.00000000	0.00000000	6.029177202	4.371370139
0.00000000	0.00000000	6.033790145	4.535367255
0.00000000	0.00000000	6.033790145	4.445165968
0.00000000	0.00000000	6.043016031	4.371370139
0.00000000	0.00000000	6.047628974	4.535367255
0.00000000	0.00000000	6.047628974	4.445165968
0.00000000	0.00000000	6.05685486	4.371370139
0.00000000	0.00000000	6.061467804	4.535367255
0.00000000	0.00000000	6.061467804	4.445165968
0.00000000	0.00000000	6.07069369	4.371370139
0.00000000	0.00000000	6.075306633	4.535367255
0.00000000	0.00000000	6.075306633	4.425366129
0.00000000	0.00000000	6.089145462	4.550577761
0.00000000	0.00000000	6.089145462	4.386030639
0.00000000	0.00000000	6.10067782	4.542966142
0.00000000	0.00000000	6.102984292	4.393379316
0.00000000	0.00000000	6.112210178	4.356758642
