#  R (cm)     T (K)
  1.480000  134.081212
  4.440000  133.280106
  7.400000  131.880448
 10.360000  129.196511
 13.320000  125.165435
 16.280000  118.580353
 19.240000  108.133218
 22.200000   91.856940
 25.160000   67.926236
 28.120000   34.681321
 29.600000    4.000000
