#  R (cm)     T (K)
  0.436250    0.102380
  1.308750    0.102347
  2.181250    0.102234
  3.053750    0.102073
  3.926250    0.101889
  4.798750    0.101602
  5.671250    0.101322
  6.543750    0.101025
  7.416250    0.100668
  8.288750    0.100248
  8.725000    0.100000
