#  R (cm)     T (K)
  0.740000  209.648453
  2.220000  214.910943
  3.700000  210.531298
  5.180000  213.652147
  6.660000  216.381706
  8.140000  212.214931
  9.620000  211.547116
 11.100000  207.238128
 12.580000  202.711641
 14.060000  167.084482
 14.800000   40.000000
