#  R (cm)     T (K)
  0.740000   94.576374
  2.220000   93.162066
  3.700000   90.809080
  5.180000   86.798535
  6.660000   80.888272
  8.140000   72.810257
  9.620000   62.681174
 11.100000   50.488608
 12.580000   36.274129
 14.060000   18.839888
 14.800000    4.000000
