#  R (cm)     T (K)
  0.740000  237.541386
  2.220000  240.898943
  3.700000  236.338300
  5.180000  236.723359
  6.660000  236.549319
  8.140000  234.143232
  9.620000  234.030755
 11.100000  229.482907
 12.580000  227.917700
 14.060000  206.324055
 14.800000   80.000000
