#  R (cm)     T (K)
  1.110000  167.627599
  3.330000  166.420047
  5.550000  164.836319
  7.770000  162.056320
  9.990000  157.681326
 12.210000  150.979768
 14.430000  141.063751
 16.650000  125.915966
 18.870000  102.323575
 21.090000   66.818833
 22.200000   40.000000
