#  R (cm)     T (K)
  1.110000  216.232299
  3.330000  212.866103
  5.550000  207.793190
  7.770000  213.034558
  9.990000  206.876197
 12.210000  203.202804
 14.430000  200.284127
 16.650000  198.952407
 18.870000  194.977848
 21.090000  185.060152
 22.200000   40.000000
