#  R (cm)     T (K)
  1.110000  125.115042
  3.330000  125.536571
  5.550000  123.408888
  7.770000  121.397387
  9.990000  117.742354
 12.210000  112.711120
 14.430000  105.704409
 16.650000   93.785224
 18.870000   72.367304
 21.090000   37.268323
 22.200000    4.000000
