#  R (cm)     T (K)
  0.654375    0.100123
  1.963125    0.100120
  3.271875    0.100117
  4.580625    0.100111
  5.889375    0.100103
  7.198125    0.100094
  8.506875    0.100083
  9.815625    0.100070
 11.124375    0.100055
 12.433125    0.100018
 13.087500    0.100000
