#  R (cm)     T (K)
  1.110000   38.938985
  3.330000   38.959268
  5.550000   38.999776
  7.770000   39.060785
  9.990000   39.142500
 12.210000   39.246003
 14.430000   39.371931
 16.650000   39.520673
 18.870000   39.693030
 21.090000   39.888798
 22.200000   40.000000
