#  R (cm)     T (K)
  1.110000   40.033153
  3.330000   40.032486
  5.550000   40.031145
  7.770000   40.029132
  9.990000   40.026473
 12.210000   40.023133
 14.430000   40.019130
 16.650000   40.014492
 18.870000   40.009234
 21.090000   40.003341
 22.200000   40.000000
