#  R (cm)     T (K)
  1.110000    4.000142
  3.330000    4.000139
  5.550000    4.000132
  7.770000    4.000122
  9.990000    4.000110
 12.210000    4.000096
 14.430000    4.000078
 16.650000    4.000059
 18.870000    4.000037
 21.090000    4.000013
 22.200000    4.000000
