#  R (cm)     T (K)
  0.740000  192.573572
  2.220000  191.770078
  3.700000  189.783732
  5.180000  186.253251
  6.660000  180.641768
  8.140000  172.393944
  9.620000  159.769558
 11.100000  140.669145
 12.580000  112.178425
 14.060000   70.529492
 14.800000   40.000000
