#  R (cm)     T (K)
  1.110000  234.822698
  3.330000  229.894103
  5.550000  226.680084
  7.770000  222.399064
  9.990000  227.135780
 12.210000  224.763966
 14.430000  230.610155
 16.650000  228.498020
 18.870000  228.399013
 21.090000  245.175964
 22.200000  300.000000
