#  R (cm)     T (K)
  1.110000    4.014945
  3.330000    4.014383
  5.550000    4.013747
  7.770000    4.012822
  9.990000    4.011646
 12.210000    4.010053
 14.430000    4.008233
 16.650000    4.006197
 18.870000    4.003922
 21.090000    4.001398
 22.200000    4.000000
