#  R (cm)     T (K)
  0.622500    1.019144
  1.867500    1.018896
  3.112500    1.018329
  4.357500    1.017294
  5.602500    1.014983
  6.847500    1.012458
  8.092500    1.009798
  9.337500    1.007001
 10.582500    1.004053
 11.827500    1.001292
 12.450000    1.000000
