#  R (cm)     T (K)
  1.110000   47.337537
  3.330000   47.173699
  5.550000   46.873006
  7.770000   46.444298
  9.990000   45.873555
 12.210000   45.163556
 14.430000   44.306398
 16.650000   43.301085
 18.870000   42.130864
 21.090000   40.784501
 22.200000   40.000000
