#  R (cm)     T (K)
  1.110000  166.693736
  3.330000  165.981806
  5.550000  164.272498
  7.770000  161.554256
  9.990000  156.906279
 12.210000  150.156903
 14.430000  139.976157
 16.650000  124.662710
 18.870000  101.543111
 21.090000   66.510949
 22.200000   40.000000
