#  R (cm)     T (K)
  1.110000   76.818269
  3.330000   75.495871
  5.550000   72.753738
  7.770000   68.646008
  9.990000   63.165370
 12.210000   56.361927
 14.430000   48.300897
 16.650000   39.054855
 18.870000   28.449814
 21.090000   15.283344
 22.200000    4.000000
