#T1	T2	1st Load	2nd Load
40.05602241	293.2773109	0.000	125.000
60.18276163	310.0840336	50.000	125.000
120.9808514	284.0336134	100.000	125.000
173.8118198	315.9663866	150.000	125.000
39.75754236	247.8991597	0.000	100.000
58.46535335	224.3697479	50.000	100.000
114.3270423	201.6806723	100.000	100.000
161.2159618	221.0084034	150.000	100.000
248.6476558	321.0084034	200.000	100.000
40.31776645	145.3781513	0.000	75.000
57.25306516	146.2184874	50.000	75.000
99.3846719	136.1344538	100.000	75.000
153.4003765	151.2605042	150.000	75.000
245.3092712	231.9327731	200.000	75.000
306.217569	285.7142857	250.000	75.000
306.217569  292.0376532 250.000 90.000
41.2315746	78.1512605	0.000	50.000
58.16228131	79.83193277	50.000	50.000
88.7587822	80.67226891	100.000	50.000
152.0503283	98.31932773	150.000	50.000
235.3721817	150.4201681	200.000	50.000
301.7449603	204.2016807	250.000	50.000
#40.92391055	34.45378151	0.000	25.000
56.21068099	36.97478992	50.000	25.000
84.60761354	40.33613445	100.000	25.000
140.8228865	52.94117647	150.000	25.000
217.6975708	84.87394958	200.000	25.000
293.943151	131.9327731	250.000	25.000
#30.16485283	3.361344538	0.000	0.000
49.29053589	3.361344538	50.000	0.000
74.41796391	5.042016807	100.000	0.000
113.2065941	6.722689076	150.000	0.000
215.1995224	42.01680672	200.000	0.000
285.5351977	70.58823529	250.000	0.000
32.0097078	5.277652769	0.00	3.00
35.72181684	5.209248128	21.00	3.00
42.33147964	5.166077341	42.00	3.00
53.86447652	5.21992028	63.00	3.00
68.95014305	5.287617731	84.00	3.00
31.8865923	5.024639172	0.00	2.50
35.49005111	4.967935324	21.00	2.50
41.8808062	4.918753415	42.00	2.50
53.25275644	5.025442798	63.00	2.50
68.61326304	5.122713684	84.00	2.50
31.86987688	4.718746986	0.00	2.00
35.25603523	4.685444727	21.00	2.00
41.21122505	4.665418368	42.00	2.00
52.74711498	4.772204185	63.00	2.00
68.38664052	4.975521553	84.00	2.00
31.57446398	4.312690861	0.00	1.50
35.17985149	4.291282266	21.00	1.50
40.69497573	4.218055868	42.00	1.50
52.12671574	4.418898068	63.00	1.50
68.10279983	4.781236941	84.00	1.50
31.55196245	3.900912919	0.00	1.00
35.10302485	3.88535472	21.00	1.00
40.45710245	3.864974766	42.00	1.00
51.83451734	4.071667363	63.00	1.00
67.70162975	4.439824488	84.00	1.00
31.47031406	3.406747244	0.00	0.50
35.02459095	3.450014465	21.00	0.50
40.26808962	3.406040053	42.00	0.50
51.3774149	3.706692597	63.00	0.50
67.0320486	4.18648944	84.00	0.50
31.43688322	2.794962872	0.00	0.00
34.93715645	2.849963033	21.00	0.00
39.96431901	2.847037835	42.00	0.00
50.63936481	3.200376097	63.00	0.00
66.62252081	3.692130895	84.00	0.00
39.13934426	31.79052823	0.00	40.00
44.3442623	33.26897389	20.00	40.00
51.39344262	34.94231937	40.00	40.00
39.46721311	27.78567092	0.00	35.00
45.28688525	29.32908318	20.00	35.00
51.96721311	30.56344869	40.00	35.00
56.47540984	31.97814208	50.00	35.00
39.67213115	24.37522769	0.00	30.00
45.40983607	25.40133576	20.00	30.00
52.5	26.48148148	40.00	30.00
39.83606557	20.66909532	0.00	25.00
45.86065574	22.20947177	20.00	25.00
52.78688525	23.36612022	40.00	25.00
57.45901639	24.63023679	50.00	25.00
39.95901639	16.14875531	0.00	20.00
46.14754098	17.83485124	20.00	20.00
53.23770492	19.6557377	40.00	20.00
39.09836066	11.56891318	0.00	15.00
45.6147541	13.17607772	20.00	15.00
53.1557377	14.69398907	40.00	15.00
58.27868852	16.54401943	50.00	15.00
37.58196721	9.146933819	0.00	10.00
42.17213115	9.301153613	20.00	10.00
51.2704918	9.758955677	40.00	10.00
34.83606557	6.965391621	0.00	5.00
38.52459016	6.836672738	20.00	5.00
49.79508197	6.669702489	40.00	5.00
54.26229508	6.825743777	50.00	5.00
