#  R (cm)     T (K)
  1.110000    4.021644
  3.330000    4.021384
  5.550000    4.020668
  7.770000    4.019381
  9.990000    4.017580
 12.210000    4.015304
 14.430000    4.012559
 16.650000    4.009572
 18.870000    4.006070
 21.090000    4.002132
 22.200000    4.000000
