#  R (cm)     T (K)
  1.110000  252.423098
  3.330000  252.717596
  5.550000  254.111667
  7.770000  252.738663
  9.990000  253.188749
 12.210000  254.129422
 14.430000  250.355994
 16.650000  246.884790
 18.870000  246.587424
 21.090000  235.921212
 22.200000   40.000000
