#  R (cm)     T (K)
  1.110000  213.247822
  3.330000  212.291980
  5.550000  211.201998
  7.770000  209.013336
  9.990000  205.482352
 12.210000  200.114099
 14.430000  191.286674
 16.650000  175.902756
 18.870000  147.124099
 21.090000   91.268958
 22.200000   40.000000
