#  R (cm)     T (K)
  1.110000  227.898793
  3.330000  229.939927
  5.550000  229.781381
  7.770000  232.356601
  9.990000  229.950538
 12.210000  227.322864
 14.430000  218.654418
 16.650000  214.531538
 18.870000  208.771326
 21.090000  190.470364
 22.200000   40.000000
