#  R (cm)     T (K)
  1.110000  195.096837
  3.330000  194.398456
  5.550000  193.210320
  7.770000  189.705796
  9.990000  187.079867
 12.210000  181.586837
 14.430000  173.295926
 16.650000  159.984804
 18.870000  137.615618
 21.090000   91.666974
 22.200000   40.000000
