#  R (cm)     T (K)
  1.110000  119.313626
  3.330000  118.137674
  5.550000  115.639794
  7.770000  111.393992
  9.990000  105.002105
 12.210000   96.001509
 14.430000   83.845239
 16.650000   68.265089
 18.870000   49.218652
 21.090000   25.301792
 22.200000    4.000000
