#  R (cm)     T (K)
  1.110000  227.532268
  3.330000  227.037966
  5.550000  228.725925
  7.770000  229.374526
  9.990000  226.350970
 12.210000  224.619014
 14.430000  219.543545
 16.650000  217.058952
 18.870000  205.913733
 21.090000  185.444113
 22.200000   40.000000
