#  R (cm)     T (K)
  0.436250    2.430222
  1.308750    2.407640
  2.181250    2.365926
  3.053750    2.309300
  3.926250    2.228849
  4.798750    2.124254
  5.671250    1.983313
  6.543750    1.793261
  7.416250    1.524240
  8.288750    1.053349
  8.725000    0.100000
