#  R (cm)     T (K)
  0.415000    2.728954
  1.245000    2.713760
  2.075000    2.681924
  2.905000    2.631404
  3.735000    2.560032
  4.565000    2.464474
  5.395000    2.325368
  6.225000    2.133841
  7.055000    1.859464
  7.885000    1.423648
  8.300000    1.000000
