#  R (cm)     T (K)
  0.740000  294.451752
  2.220000  293.676743
  3.700000  294.509019
  5.180000  292.138757
  6.660000  292.592552
  8.140000  294.747406
  9.620000  294.670346
 11.100000  294.887693
 12.580000  295.050323
 14.060000  295.018026
 14.800000  300.000000
