#  R (cm)     T (K)
  0.740000   64.062727
  2.220000   62.884792
  3.700000   60.552107
  5.180000   57.038533
  6.660000   52.467778
  8.140000   46.886818
  9.620000   40.319901
 11.100000   32.805587
 12.580000   24.166290
 14.060000   13.313015
 14.800000    4.000000
